('C:\\Users\\Stephenry\\Desktop\\dungeon-master-mentor\\GridStuff\\build\\gridStructureTest\\out00-PYZ.pyz',
 [('win32com',
   't:\\anaconda\\lib\\site-packages\\win32com\\__init__.py',
   'PYMODULE'),
  ('win32com.server.util',
   't:\\anaconda\\lib\\site-packages\\win32com\\server\\util.py',
   'PYMODULE'),
  ('win32com.server.dispatcher',
   't:\\anaconda\\lib\\site-packages\\win32com\\server\\dispatcher.py',
   'PYMODULE'),
  ('win32traceutil',
   't:\\anaconda\\lib\\site-packages\\win32\\lib\\win32traceutil.py',
   'PYMODULE'),
  ('win32com.util',
   't:\\anaconda\\lib\\site-packages\\win32com\\util.py',
   'PYMODULE'),
  ('win32con',
   't:\\anaconda\\lib\\site-packages\\win32\\lib\\win32con.py',
   'PYMODULE'),
  ('win32com.server.exception',
   't:\\anaconda\\lib\\site-packages\\win32com\\server\\exception.py',
   'PYMODULE'),
  ('winerror',
   't:\\anaconda\\lib\\site-packages\\win32\\lib\\winerror.py',
   'PYMODULE'),
  ('win32com.server.policy',
   't:\\anaconda\\lib\\site-packages\\win32com\\server\\policy.py',
   'PYMODULE'),
  ('win32com.client',
   't:\\anaconda\\lib\\site-packages\\win32com\\client\\__init__.py',
   'PYMODULE'),
  ('win32com.client.makepy',
   't:\\anaconda\\lib\\site-packages\\win32com\\client\\makepy.py',
   'PYMODULE'),
  ('pywin.dialogs.status',
   't:\\anaconda\\lib\\site-packages\\Pythonwin\\pywin\\dialogs\\status.py',
   'PYMODULE'),
  ('pywin.mfc.thread',
   't:\\anaconda\\lib\\site-packages\\Pythonwin\\pywin\\mfc\\thread.py',
   'PYMODULE'),
  ('pywin.mfc.object',
   't:\\anaconda\\lib\\site-packages\\Pythonwin\\pywin\\mfc\\object.py',
   'PYMODULE'),
  ('pywin.mfc.dialog',
   't:\\anaconda\\lib\\site-packages\\Pythonwin\\pywin\\mfc\\dialog.py',
   'PYMODULE'),
  ('pywin.mfc.window',
   't:\\anaconda\\lib\\site-packages\\Pythonwin\\pywin\\mfc\\window.py',
   'PYMODULE'),
  ('pywin.mfc',
   't:\\anaconda\\lib\\site-packages\\Pythonwin\\pywin\\mfc\\__init__.py',
   'PYMODULE'),
  ('pywin.dialogs',
   't:\\anaconda\\lib\\site-packages\\Pythonwin\\pywin\\dialogs\\__init__.py',
   'PYMODULE'),
  ('pywin',
   't:\\anaconda\\lib\\site-packages\\Pythonwin\\pywin\\__init__.py',
   'PYMODULE'),
  ('win32com.client.gencache',
   't:\\anaconda\\lib\\site-packages\\win32com\\client\\gencache.py',
   'PYMODULE'),
  ('win32com.client.selecttlb',
   't:\\anaconda\\lib\\site-packages\\win32com\\client\\selecttlb.py',
   'PYMODULE'),
  ('pywin.dialogs.list',
   't:\\anaconda\\lib\\site-packages\\Pythonwin\\pywin\\dialogs\\list.py',
   'PYMODULE'),
  ('commctrl',
   't:\\anaconda\\lib\\site-packages\\win32\\lib\\commctrl.py',
   'PYMODULE'),
  ('win32com.client.genpy',
   't:\\anaconda\\lib\\site-packages\\win32com\\client\\genpy.py',
   'PYMODULE'),
  ('win32com.client.CLSIDToClass',
   't:\\anaconda\\lib\\site-packages\\win32com\\client\\CLSIDToClass.py',
   'PYMODULE'),
  ('win32com.client.dynamic',
   't:\\anaconda\\lib\\site-packages\\win32com\\client\\dynamic.py',
   'PYMODULE'),
  ('win32com.client.build',
   't:\\anaconda\\lib\\site-packages\\win32com\\client\\build.py',
   'PYMODULE'),
  ('pywintypes',
   't:\\anaconda\\lib\\site-packages\\win32\\lib\\pywintypes.py',
   'PYMODULE'),
  ('win32com.server',
   't:\\anaconda\\lib\\site-packages\\win32com\\server\\__init__.py',
   'PYMODULE'),
  ('win32com.universal',
   't:\\anaconda\\lib\\site-packages\\win32com\\universal.py',
   'PYMODULE'),
  ('win32com.client.util',
   't:\\anaconda\\lib\\site-packages\\win32com\\client\\util.py',
   'PYMODULE'),
  ('imp', 't:\\anaconda\\lib\\imp.py', 'PYMODULE'),
  ('pythoncom', 't:\\anaconda\\lib\\site-packages\\pythoncom.py', 'PYMODULE'),
  ('pkg_resources',
   't:\\anaconda\\lib\\site-packages\\pkg_resources\\__init__.py',
   'PYMODULE'),
  ('pkg_resources._vendor.packaging.requirements',
   't:\\anaconda\\lib\\site-packages\\pkg_resources\\_vendor\\packaging\\requirements.py',
   'PYMODULE'),
  ('pkg_resources._vendor.packaging._structures',
   't:\\anaconda\\lib\\site-packages\\pkg_resources\\_vendor\\packaging\\_structures.py',
   'PYMODULE'),
  ('pkg_resources._vendor.packaging',
   't:\\anaconda\\lib\\site-packages\\pkg_resources\\_vendor\\packaging\\__init__.py',
   'PYMODULE'),
  ('pkg_resources._vendor.packaging._compat',
   't:\\anaconda\\lib\\site-packages\\pkg_resources\\_vendor\\packaging\\_compat.py',
   'PYMODULE'),
  ('pkg_resources._vendor.packaging.utils',
   't:\\anaconda\\lib\\site-packages\\pkg_resources\\_vendor\\packaging\\utils.py',
   'PYMODULE'),
  ('pkg_resources._vendor.packaging.specifiers',
   't:\\anaconda\\lib\\site-packages\\pkg_resources\\_vendor\\packaging\\specifiers.py',
   'PYMODULE'),
  ('pkg_resources._vendor.appdirs',
   't:\\anaconda\\lib\\site-packages\\pkg_resources\\_vendor\\appdirs.py',
   'PYMODULE'),
  ('ctypes', 't:\\anaconda\\lib\\ctypes\\__init__.py', 'PYMODULE'),
  ('ctypes._endian', 't:\\anaconda\\lib\\ctypes\\_endian.py', 'PYMODULE'),
  ('win32com.shell.shellcon',
   't:\\anaconda\\lib\\site-packages\\win32comext\\shell\\shellcon.py',
   'PYMODULE'),
  ('win32com.shell',
   't:\\anaconda\\lib\\site-packages\\win32comext\\shell\\__init__.py',
   'PYMODULE'),
  ('pkg_resources._vendor.pyparsing',
   't:\\anaconda\\lib\\site-packages\\pkg_resources\\_vendor\\pyparsing.py',
   'PYMODULE'),
  ('uuid', 't:\\anaconda\\lib\\uuid.py', 'PYMODULE'),
  ('ctypes.util', 't:\\anaconda\\lib\\ctypes\\util.py', 'PYMODULE'),
  ('ctypes.macholib.dyld',
   't:\\anaconda\\lib\\ctypes\\macholib\\dyld.py',
   'PYMODULE'),
  ('ctypes.macholib',
   't:\\anaconda\\lib\\ctypes\\macholib\\__init__.py',
   'PYMODULE'),
  ('ctypes.macholib.dylib',
   't:\\anaconda\\lib\\ctypes\\macholib\\dylib.py',
   'PYMODULE'),
  ('ctypes.macholib.framework',
   't:\\anaconda\\lib\\ctypes\\macholib\\framework.py',
   'PYMODULE'),
  ('netbios',
   't:\\anaconda\\lib\\site-packages\\win32\\lib\\netbios.py',
   'PYMODULE'),
  ('pkg_resources._vendor.packaging.version',
   't:\\anaconda\\lib\\site-packages\\pkg_resources\\_vendor\\packaging\\version.py',
   'PYMODULE'),
  ('pkg_resources._vendor',
   't:\\anaconda\\lib\\site-packages\\pkg_resources\\_vendor\\__init__.py',
   'PYMODULE'),
  ('pkg_resources._vendor.six',
   't:\\anaconda\\lib\\site-packages\\pkg_resources\\_vendor\\six.py',
   'PYMODULE'),
  ('pkg_resources._vendor.packaging.markers',
   't:\\anaconda\\lib\\site-packages\\pkg_resources\\_vendor\\packaging\\markers.py',
   'PYMODULE'),
  ('pkg_resources._vendor.packaging.__about__',
   't:\\anaconda\\lib\\site-packages\\pkg_resources\\_vendor\\packaging\\__about__.py',
   'PYMODULE'),
  ('__main__',
   'T:\\Anaconda\\Scripts\\pyinstaller.exe\\__main__.py',
   'PYMODULE'),
  ('PyInstaller.__main__',
   't:\\anaconda\\lib\\site-packages\\PyInstaller\\__main__.py',
   'PYMODULE'),
  ('PyInstaller.building.build_main',
   't:\\anaconda\\lib\\site-packages\\PyInstaller\\building\\build_main.py',
   'PYMODULE'),
  ('PyInstaller.building',
   't:\\anaconda\\lib\\site-packages\\PyInstaller\\building\\__init__.py',
   'PYMODULE'),
  ('PyInstaller.config',
   't:\\anaconda\\lib\\site-packages\\PyInstaller\\config.py',
   'PYMODULE'),
  ('PyInstaller.utils.win32.winmanifest',
   't:\\anaconda\\lib\\site-packages\\PyInstaller\\utils\\win32\\winmanifest.py',
   'PYMODULE'),
  ('PyInstaller.utils.win32.winresource',
   't:\\anaconda\\lib\\site-packages\\PyInstaller\\utils\\win32\\winresource.py',
   'PYMODULE'),
  ('xml.dom.minidom', 't:\\anaconda\\lib\\xml\\dom\\minidom.py', 'PYMODULE'),
  ('xml.dom.pulldom', 't:\\anaconda\\lib\\xml\\dom\\pulldom.py', 'PYMODULE'),
  ('xml.sax.handler', 't:\\anaconda\\lib\\xml\\sax\\handler.py', 'PYMODULE'),
  ('xml.sax', 't:\\anaconda\\lib\\xml\\sax\\__init__.py', 'PYMODULE'),
  ('xml.sax.expatreader',
   't:\\anaconda\\lib\\xml\\sax\\expatreader.py',
   'PYMODULE'),
  ('xml.sax._exceptions',
   't:\\anaconda\\lib\\xml\\sax\\_exceptions.py',
   'PYMODULE'),
  ('xml.sax.saxutils', 't:\\anaconda\\lib\\xml\\sax\\saxutils.py', 'PYMODULE'),
  ('urllib.request', 't:\\anaconda\\lib\\urllib\\request.py', 'PYMODULE'),
  ('getpass', 't:\\anaconda\\lib\\getpass.py', 'PYMODULE'),
  ('nturl2path', 't:\\anaconda\\lib\\nturl2path.py', 'PYMODULE'),
  ('ftplib', 't:\\anaconda\\lib\\ftplib.py', 'PYMODULE'),
  ('netrc', 't:\\anaconda\\lib\\netrc.py', 'PYMODULE'),
  ('http.cookiejar', 't:\\anaconda\\lib\\http\\cookiejar.py', 'PYMODULE'),
  ('urllib.response', 't:\\anaconda\\lib\\urllib\\response.py', 'PYMODULE'),
  ('urllib.error', 't:\\anaconda\\lib\\urllib\\error.py', 'PYMODULE'),
  ('xml.sax.xmlreader',
   't:\\anaconda\\lib\\xml\\sax\\xmlreader.py',
   'PYMODULE'),
  ('xml.dom.expatbuilder',
   't:\\anaconda\\lib\\xml\\dom\\expatbuilder.py',
   'PYMODULE'),
  ('xml.dom.NodeFilter',
   't:\\anaconda\\lib\\xml\\dom\\NodeFilter.py',
   'PYMODULE'),
  ('xml.dom.xmlbuilder',
   't:\\anaconda\\lib\\xml\\dom\\xmlbuilder.py',
   'PYMODULE'),
  ('xml.dom.minicompat',
   't:\\anaconda\\lib\\xml\\dom\\minicompat.py',
   'PYMODULE'),
  ('xml.dom.domreg', 't:\\anaconda\\lib\\xml\\dom\\domreg.py', 'PYMODULE'),
  ('xml.dom', 't:\\anaconda\\lib\\xml\\dom\\__init__.py', 'PYMODULE'),
  ('PyInstaller.utils.win32',
   't:\\anaconda\\lib\\site-packages\\PyInstaller\\utils\\win32\\__init__.py',
   'PYMODULE'),
  ('PyInstaller.utils.win32.versioninfo',
   't:\\anaconda\\lib\\site-packages\\PyInstaller\\utils\\win32\\versioninfo.py',
   'PYMODULE'),
  ('pefile', 't:\\anaconda\\lib\\site-packages\\pefile.py', 'PYMODULE'),
  ('ordlookup',
   't:\\anaconda\\lib\\site-packages\\ordlookup\\__init__.py',
   'PYMODULE'),
  ('ordlookup.oleaut32',
   't:\\anaconda\\lib\\site-packages\\ordlookup\\oleaut32.py',
   'PYMODULE'),
  ('ordlookup.ws2_32',
   't:\\anaconda\\lib\\site-packages\\ordlookup\\ws2_32.py',
   'PYMODULE'),
  ('PyInstaller.utils.win32.icon',
   't:\\anaconda\\lib\\site-packages\\PyInstaller\\utils\\win32\\icon.py',
   'PYMODULE'),
  ('PyInstaller.utils.win32.winutils',
   't:\\anaconda\\lib\\site-packages\\PyInstaller\\utils\\win32\\winutils.py',
   'PYMODULE'),
  ('site',
   't:\\anaconda\\lib\\site-packages\\PyInstaller\\fake-modules\\site.py',
   'PYMODULE'),
  ('PyInstaller.utils',
   't:\\anaconda\\lib\\site-packages\\PyInstaller\\utils\\__init__.py',
   'PYMODULE'),
  ('PyInstaller.configure',
   't:\\anaconda\\lib\\site-packages\\PyInstaller\\configure.py',
   'PYMODULE'),
  ('PyInstaller.archive.pyz_crypto',
   't:\\anaconda\\lib\\site-packages\\PyInstaller\\archive\\pyz_crypto.py',
   'PYMODULE'),
  ('PyInstaller.archive',
   't:\\anaconda\\lib\\site-packages\\PyInstaller\\archive\\__init__.py',
   'PYMODULE'),
  ('PyInstaller.depend.utils',
   't:\\anaconda\\lib\\site-packages\\PyInstaller\\depend\\utils.py',
   'PYMODULE'),
  ('distutils.spawn', 't:\\anaconda\\lib\\distutils\\spawn.py', 'PYMODULE'),
  ('distutils.sysconfig',
   't:\\anaconda\\lib\\distutils\\sysconfig.py',
   'PYMODULE'),
  ('distutils.text_file',
   't:\\anaconda\\lib\\distutils\\text_file.py',
   'PYMODULE'),
  ('_osx_support', 't:\\anaconda\\lib\\_osx_support.py', 'PYMODULE'),
  ('distutils.log', 't:\\anaconda\\lib\\distutils\\log.py', 'PYMODULE'),
  ('distutils', 't:\\anaconda\\lib\\distutils\\__init__.py', 'PYMODULE'),
  ('distutils.archive_util',
   't:\\anaconda\\lib\\distutils\\archive_util.py',
   'PYMODULE'),
  ('distutils.dir_util',
   't:\\anaconda\\lib\\distutils\\dir_util.py',
   'PYMODULE'),
  ('distutils.file_util',
   't:\\anaconda\\lib\\distutils\\file_util.py',
   'PYMODULE'),
  ('distutils.dep_util',
   't:\\anaconda\\lib\\distutils\\dep_util.py',
   'PYMODULE'),
  ('distutils.ccompiler',
   't:\\anaconda\\lib\\distutils\\ccompiler.py',
   'PYMODULE'),
  ('distutils.fancy_getopt',
   't:\\anaconda\\lib\\distutils\\fancy_getopt.py',
   'PYMODULE'),
  ('distutils.debug', 't:\\anaconda\\lib\\distutils\\debug.py', 'PYMODULE'),
  ('distutils.errors', 't:\\anaconda\\lib\\distutils\\errors.py', 'PYMODULE'),
  ('PyInstaller.depend.dylib',
   't:\\anaconda\\lib\\site-packages\\PyInstaller\\depend\\dylib.py',
   'PYMODULE'),
  ('macholib.MachO',
   't:\\anaconda\\lib\\site-packages\\macholib\\MachO.py',
   'PYMODULE'),
  ('macholib.ptypes',
   't:\\anaconda\\lib\\site-packages\\macholib\\ptypes.py',
   'PYMODULE'),
  ('macholib.mach_o',
   't:\\anaconda\\lib\\site-packages\\macholib\\mach_o.py',
   'PYMODULE'),
  ('macholib.util',
   't:\\anaconda\\lib\\site-packages\\macholib\\util.py',
   'PYMODULE'),
  ('macholib',
   't:\\anaconda\\lib\\site-packages\\macholib\\__init__.py',
   'PYMODULE'),
  ('PyInstaller.lib.modulegraph.modulegraph',
   't:\\anaconda\\lib\\site-packages\\PyInstaller\\lib\\modulegraph\\modulegraph.py',
   'PYMODULE'),
  ('PyInstaller.lib.modulegraph._compat',
   't:\\anaconda\\lib\\site-packages\\PyInstaller\\lib\\modulegraph\\_compat.py',
   'PYMODULE'),
  ('PyInstaller.lib.modulegraph.zipio',
   't:\\anaconda\\lib\\site-packages\\PyInstaller\\lib\\modulegraph\\zipio.py',
   'PYMODULE'),
  ('PyInstaller.lib.altgraph',
   't:\\anaconda\\lib\\site-packages\\PyInstaller\\lib\\altgraph\\__init__.py',
   'PYMODULE'),
  ('PyInstaller.lib',
   't:\\anaconda\\lib\\site-packages\\PyInstaller\\lib\\__init__.py',
   'PYMODULE'),
  ('PyInstaller.lib.altgraph.ObjectGraph',
   't:\\anaconda\\lib\\site-packages\\PyInstaller\\lib\\altgraph\\ObjectGraph.py',
   'PYMODULE'),
  ('PyInstaller.lib.altgraph.GraphUtil',
   't:\\anaconda\\lib\\site-packages\\PyInstaller\\lib\\altgraph\\GraphUtil.py',
   'PYMODULE'),
  ('PyInstaller.lib.altgraph.Graph',
   't:\\anaconda\\lib\\site-packages\\PyInstaller\\lib\\altgraph\\Graph.py',
   'PYMODULE'),
  ('PyInstaller.lib.modulegraph.util',
   't:\\anaconda\\lib\\site-packages\\PyInstaller\\lib\\modulegraph\\util.py',
   'PYMODULE'),
  ('PyInstaller.lib.modulegraph',
   't:\\anaconda\\lib\\site-packages\\PyInstaller\\lib\\modulegraph\\__init__.py',
   'PYMODULE'),
  ('PyInstaller.building.utils',
   't:\\anaconda\\lib\\site-packages\\PyInstaller\\building\\utils.py',
   'PYMODULE'),
  ('PyInstaller.building.toc_conversion',
   't:\\anaconda\\lib\\site-packages\\PyInstaller\\building\\toc_conversion.py',
   'PYMODULE'),
  ('PyInstaller.utils.hooks',
   't:\\anaconda\\lib\\site-packages\\PyInstaller\\utils\\hooks\\__init__.py',
   'PYMODULE'),
  ('PyInstaller.utils.hooks.win32',
   't:\\anaconda\\lib\\site-packages\\PyInstaller\\utils\\hooks\\win32.py',
   'PYMODULE'),
  ('PyInstaller.utils.hooks.qt',
   't:\\anaconda\\lib\\site-packages\\PyInstaller\\utils\\hooks\\qt.py',
   'PYMODULE'),
  ('PyQt5', 't:\\anaconda\\lib\\site-packages\\PyQt5\\__init__.py', 'PYMODULE'),
  ('PyInstaller.utils.hooks.gi',
   't:\\anaconda\\lib\\site-packages\\PyInstaller\\utils\\hooks\\gi.py',
   'PYMODULE'),
  ('PyInstaller.utils.hooks.django',
   't:\\anaconda\\lib\\site-packages\\PyInstaller\\utils\\hooks\\django.py',
   'PYMODULE'),
  ('PyInstaller.building.osx',
   't:\\anaconda\\lib\\site-packages\\PyInstaller\\building\\osx.py',
   'PYMODULE'),
  ('PyInstaller.building.imphook',
   't:\\anaconda\\lib\\site-packages\\PyInstaller\\building\\imphook.py',
   'PYMODULE'),
  ('PyInstaller.building.imphookapi',
   't:\\anaconda\\lib\\site-packages\\PyInstaller\\building\\imphookapi.py',
   'PYMODULE'),
  ('PyInstaller.building.datastruct',
   't:\\anaconda\\lib\\site-packages\\PyInstaller\\building\\datastruct.py',
   'PYMODULE'),
  ('PyInstaller.building.api',
   't:\\anaconda\\lib\\site-packages\\PyInstaller\\building\\api.py',
   'PYMODULE'),
  ('PyInstaller.utils.osx',
   't:\\anaconda\\lib\\site-packages\\PyInstaller\\utils\\osx.py',
   'PYMODULE'),
  ('PyInstaller.archive.writers',
   't:\\anaconda\\lib\\site-packages\\PyInstaller\\archive\\writers.py',
   'PYMODULE'),
  ('PyInstaller.archive.readers',
   't:\\anaconda\\lib\\site-packages\\PyInstaller\\archive\\readers.py',
   'PYMODULE'),
  ('PyInstaller.loader.pyimod02_archive',
   't:\\anaconda\\lib\\site-packages\\PyInstaller\\loader\\pyimod02_archive.py',
   'PYMODULE'),
  ('PyInstaller.loader',
   't:\\anaconda\\lib\\site-packages\\PyInstaller\\loader\\__init__.py',
   'PYMODULE'),
  ('PyInstaller.depend.analysis',
   't:\\anaconda\\lib\\site-packages\\PyInstaller\\depend\\analysis.py',
   'PYMODULE'),
  ('PyInstaller.lib.modulegraph.find_modules',
   't:\\anaconda\\lib\\site-packages\\PyInstaller\\lib\\modulegraph\\find_modules.py',
   'PYMODULE'),
  ('xml.etree', 't:\\anaconda\\lib\\xml\\etree\\__init__.py', 'PYMODULE'),
  ('PyInstaller.depend.bindepend',
   't:\\anaconda\\lib\\site-packages\\PyInstaller\\depend\\bindepend.py',
   'PYMODULE'),
  ('macholib.dyld',
   't:\\anaconda\\lib\\site-packages\\macholib\\dyld.py',
   'PYMODULE'),
  ('macholib.dylib',
   't:\\anaconda\\lib\\site-packages\\macholib\\dylib.py',
   'PYMODULE'),
  ('macholib.framework',
   't:\\anaconda\\lib\\site-packages\\macholib\\framework.py',
   'PYMODULE'),
  ('PyInstaller.depend',
   't:\\anaconda\\lib\\site-packages\\PyInstaller\\depend\\__init__.py',
   'PYMODULE'),
  ('PyInstaller.utils.misc',
   't:\\anaconda\\lib\\site-packages\\PyInstaller\\utils\\misc.py',
   'PYMODULE'),
  ('PyInstaller.building.makespec',
   't:\\anaconda\\lib\\site-packages\\PyInstaller\\building\\makespec.py',
   'PYMODULE'),
  ('Crypto',
   't:\\anaconda\\lib\\site-packages\\Crypto\\__init__.py',
   'PYMODULE'),
  ('PyInstaller.building.templates',
   't:\\anaconda\\lib\\site-packages\\PyInstaller\\building\\templates.py',
   'PYMODULE'),
  ('distutils.version', 't:\\anaconda\\lib\\distutils\\version.py', 'PYMODULE'),
  ('PyInstaller.compat',
   't:\\anaconda\\lib\\site-packages\\PyInstaller\\compat.py',
   'PYMODULE'),
  ('PyInstaller.log',
   't:\\anaconda\\lib\\site-packages\\PyInstaller\\log.py',
   'PYMODULE'),
  ('PyInstaller',
   't:\\anaconda\\lib\\site-packages\\PyInstaller\\__init__.py',
   'PYMODULE'),
  ('PyInstaller.utils.git',
   't:\\anaconda\\lib\\site-packages\\PyInstaller\\utils\\git.py',
   'PYMODULE'),
  ('PyInstaller.utils._gitrevision',
   't:\\anaconda\\lib\\site-packages\\PyInstaller\\utils\\_gitrevision.py',
   'PYMODULE'),
  ('distutils.util', 't:\\anaconda\\lib\\distutils\\util.py', 'PYMODULE'),
  ('distutils.filelist',
   't:\\anaconda\\lib\\distutils\\filelist.py',
   'PYMODULE'),
  ('lib2to3.refactor', 't:\\anaconda\\lib\\lib2to3\\refactor.py', 'PYMODULE'),
  ('multiprocessing',
   't:\\anaconda\\lib\\multiprocessing\\__init__.py',
   'PYMODULE'),
  ('multiprocessing.spawn',
   't:\\anaconda\\lib\\multiprocessing\\spawn.py',
   'PYMODULE'),
  ('runpy', 't:\\anaconda\\lib\\runpy.py', 'PYMODULE'),
  ('multiprocessing.semaphore_tracker',
   't:\\anaconda\\lib\\multiprocessing\\semaphore_tracker.py',
   'PYMODULE'),
  ('multiprocessing.pool',
   't:\\anaconda\\lib\\multiprocessing\\pool.py',
   'PYMODULE'),
  ('multiprocessing.dummy',
   't:\\anaconda\\lib\\multiprocessing\\dummy\\__init__.py',
   'PYMODULE'),
  ('multiprocessing.dummy.connection',
   't:\\anaconda\\lib\\multiprocessing\\dummy\\connection.py',
   'PYMODULE'),
  ('queue', 't:\\anaconda\\lib\\queue.py', 'PYMODULE'),
  ('multiprocessing.reduction',
   't:\\anaconda\\lib\\multiprocessing\\reduction.py',
   'PYMODULE'),
  ('multiprocessing.resource_sharer',
   't:\\anaconda\\lib\\multiprocessing\\resource_sharer.py',
   'PYMODULE'),
  ('multiprocessing.connection',
   't:\\anaconda\\lib\\multiprocessing\\connection.py',
   'PYMODULE'),
  ('xmlrpc.client', 't:\\anaconda\\lib\\xmlrpc\\client.py', 'PYMODULE'),
  ('xmlrpc', 't:\\anaconda\\lib\\xmlrpc\\__init__.py', 'PYMODULE'),
  ('decimal', 't:\\anaconda\\lib\\decimal.py', 'PYMODULE'),
  ('_pydecimal', 't:\\anaconda\\lib\\_pydecimal.py', 'PYMODULE'),
  ('numbers', 't:\\anaconda\\lib\\numbers.py', 'PYMODULE'),
  ('hmac', 't:\\anaconda\\lib\\hmac.py', 'PYMODULE'),
  ('multiprocessing.context',
   't:\\anaconda\\lib\\multiprocessing\\context.py',
   'PYMODULE'),
  ('multiprocessing.popen_spawn_win32',
   't:\\anaconda\\lib\\multiprocessing\\popen_spawn_win32.py',
   'PYMODULE'),
  ('multiprocessing.popen_forkserver',
   't:\\anaconda\\lib\\multiprocessing\\popen_forkserver.py',
   'PYMODULE'),
  ('multiprocessing.popen_spawn_posix',
   't:\\anaconda\\lib\\multiprocessing\\popen_spawn_posix.py',
   'PYMODULE'),
  ('multiprocessing.popen_fork',
   't:\\anaconda\\lib\\multiprocessing\\popen_fork.py',
   'PYMODULE'),
  ('multiprocessing.forkserver',
   't:\\anaconda\\lib\\multiprocessing\\forkserver.py',
   'PYMODULE'),
  ('multiprocessing.sharedctypes',
   't:\\anaconda\\lib\\multiprocessing\\sharedctypes.py',
   'PYMODULE'),
  ('multiprocessing.heap',
   't:\\anaconda\\lib\\multiprocessing\\heap.py',
   'PYMODULE'),
  ('multiprocessing.queues',
   't:\\anaconda\\lib\\multiprocessing\\queues.py',
   'PYMODULE'),
  ('multiprocessing.synchronize',
   't:\\anaconda\\lib\\multiprocessing\\synchronize.py',
   'PYMODULE'),
  ('multiprocessing.managers',
   't:\\anaconda\\lib\\multiprocessing\\managers.py',
   'PYMODULE'),
  ('multiprocessing.util',
   't:\\anaconda\\lib\\multiprocessing\\util.py',
   'PYMODULE'),
  ('multiprocessing.process',
   't:\\anaconda\\lib\\multiprocessing\\process.py',
   'PYMODULE'),
  ('lib2to3.btm_matcher',
   't:\\anaconda\\lib\\lib2to3\\btm_matcher.py',
   'PYMODULE'),
  ('lib2to3.btm_utils', 't:\\anaconda\\lib\\lib2to3\\btm_utils.py', 'PYMODULE'),
  ('lib2to3.pgen2.grammar',
   't:\\anaconda\\lib\\lib2to3\\pgen2\\grammar.py',
   'PYMODULE'),
  ('lib2to3.pygram', 't:\\anaconda\\lib\\lib2to3\\pygram.py', 'PYMODULE'),
  ('lib2to3.pytree', 't:\\anaconda\\lib\\lib2to3\\pytree.py', 'PYMODULE'),
  ('lib2to3', 't:\\anaconda\\lib\\lib2to3\\__init__.py', 'PYMODULE'),
  ('lib2to3.patcomp', 't:\\anaconda\\lib\\lib2to3\\patcomp.py', 'PYMODULE'),
  ('lib2to3.pgen2.parse',
   't:\\anaconda\\lib\\lib2to3\\pgen2\\parse.py',
   'PYMODULE'),
  ('lib2to3.pgen2.literals',
   't:\\anaconda\\lib\\lib2to3\\pgen2\\literals.py',
   'PYMODULE'),
  ('lib2to3.fixer_util',
   't:\\anaconda\\lib\\lib2to3\\fixer_util.py',
   'PYMODULE'),
  ('lib2to3.pgen2.token',
   't:\\anaconda\\lib\\lib2to3\\pgen2\\token.py',
   'PYMODULE'),
  ('lib2to3.pgen2.tokenize',
   't:\\anaconda\\lib\\lib2to3\\pgen2\\tokenize.py',
   'PYMODULE'),
  ('lib2to3.pgen2.driver',
   't:\\anaconda\\lib\\lib2to3\\pgen2\\driver.py',
   'PYMODULE'),
  ('lib2to3.pgen2.pgen',
   't:\\anaconda\\lib\\lib2to3\\pgen2\\pgen.py',
   'PYMODULE'),
  ('lib2to3.pgen2',
   't:\\anaconda\\lib\\lib2to3\\pgen2\\__init__.py',
   'PYMODULE'),
  ('sysconfig', 't:\\anaconda\\lib\\sysconfig.py', 'PYMODULE'),
  ('pkg_resources.py31compat',
   't:\\anaconda\\lib\\site-packages\\pkg_resources\\py31compat.py',
   'PYMODULE'),
  ('pkg_resources.extern',
   't:\\anaconda\\lib\\site-packages\\pkg_resources\\extern\\__init__.py',
   'PYMODULE'),
  ('ntpath', 't:\\anaconda\\lib\\ntpath.py', 'PYMODULE'),
  ('_strptime', 't:\\anaconda\\lib\\_strptime.py', 'PYMODULE'),
  ('datetime', 't:\\anaconda\\lib\\datetime.py', 'PYMODULE'),
  ('stringprep', 't:\\anaconda\\lib\\stringprep.py', 'PYMODULE'),
  ('fnmatch', 't:\\anaconda\\lib\\fnmatch.py', 'PYMODULE'),
  ('struct', 't:\\anaconda\\lib\\struct.py', 'PYMODULE'),
  ('_compat_pickle', 't:\\anaconda\\lib\\_compat_pickle.py', 'PYMODULE'),
  ('__future__', 't:\\anaconda\\lib\\__future__.py', 'PYMODULE'),
  ('difflib', 't:\\anaconda\\lib\\difflib.py', 'PYMODULE'),
  ('ast', 't:\\anaconda\\lib\\ast.py', 'PYMODULE'),
  ('inspect', 't:\\anaconda\\lib\\inspect.py', 'PYMODULE'),
  ('cmd', 't:\\anaconda\\lib\\cmd.py', 'PYMODULE'),
  ('bdb', 't:\\anaconda\\lib\\bdb.py', 'PYMODULE'),
  ('opcode', 't:\\anaconda\\lib\\opcode.py', 'PYMODULE'),
  ('dis', 't:\\anaconda\\lib\\dis.py', 'PYMODULE'),
  ('codeop', 't:\\anaconda\\lib\\codeop.py', 'PYMODULE'),
  ('code', 't:\\anaconda\\lib\\code.py', 'PYMODULE'),
  ('glob', 't:\\anaconda\\lib\\glob.py', 'PYMODULE'),
  ('shlex', 't:\\anaconda\\lib\\shlex.py', 'PYMODULE'),
  ('importlib._bootstrap',
   't:\\anaconda\\lib\\importlib\\_bootstrap.py',
   'PYMODULE'),
  ('importlib._bootstrap_external',
   't:\\anaconda\\lib\\importlib\\_bootstrap_external.py',
   'PYMODULE'),
  ('importlib.machinery',
   't:\\anaconda\\lib\\importlib\\machinery.py',
   'PYMODULE'),
  ('importlib.util', 't:\\anaconda\\lib\\importlib\\util.py', 'PYMODULE'),
  ('importlib.abc', 't:\\anaconda\\lib\\importlib\\abc.py', 'PYMODULE'),
  ('importlib', 't:\\anaconda\\lib\\importlib\\__init__.py', 'PYMODULE'),
  ('pkgutil', 't:\\anaconda\\lib\\pkgutil.py', 'PYMODULE'),
  ('xml', 't:\\anaconda\\lib\\xml\\__init__.py', 'PYMODULE'),
  ('xml.parsers', 't:\\anaconda\\lib\\xml\\parsers\\__init__.py', 'PYMODULE'),
  ('xml.parsers.expat',
   't:\\anaconda\\lib\\xml\\parsers\\expat.py',
   'PYMODULE'),
  ('plistlib', 't:\\anaconda\\lib\\plistlib.py', 'PYMODULE'),
  ('platform', 't:\\anaconda\\lib\\platform.py', 'PYMODULE'),
  ('token', 't:\\anaconda\\lib\\token.py', 'PYMODULE'),
  ('tokenize', 't:\\anaconda\\lib\\tokenize.py', 'PYMODULE'),
  ('urllib.parse', 't:\\anaconda\\lib\\urllib\\parse.py', 'PYMODULE'),
  ('tempfile', 't:\\anaconda\\lib\\tempfile.py', 'PYMODULE'),
  ('tty', 't:\\anaconda\\lib\\tty.py', 'PYMODULE'),
  ('pydoc_data', 't:\\anaconda\\lib\\pydoc_data\\__init__.py', 'PYMODULE'),
  ('pydoc_data.topics', 't:\\anaconda\\lib\\pydoc_data\\topics.py', 'PYMODULE'),
  ('html.entities', 't:\\anaconda\\lib\\html\\entities.py', 'PYMODULE'),
  ('html', 't:\\anaconda\\lib\\html\\__init__.py', 'PYMODULE'),
  ('ipaddress', 't:\\anaconda\\lib\\ipaddress.py', 'PYMODULE'),
  ('ssl', 't:\\anaconda\\lib\\ssl.py', 'PYMODULE'),
  ('http.client', 't:\\anaconda\\lib\\http\\client.py', 'PYMODULE'),
  ('mimetypes', 't:\\anaconda\\lib\\mimetypes.py', 'PYMODULE'),
  ('socketserver', 't:\\anaconda\\lib\\socketserver.py', 'PYMODULE'),
  ('http', 't:\\anaconda\\lib\\http\\__init__.py', 'PYMODULE'),
  ('http.server', 't:\\anaconda\\lib\\http\\server.py', 'PYMODULE'),
  ('optparse', 't:\\anaconda\\lib\\optparse.py', 'PYMODULE'),
  ('uu', 't:\\anaconda\\lib\\uu.py', 'PYMODULE'),
  ('quopri', 't:\\anaconda\\lib\\quopri.py', 'PYMODULE'),
  ('email.feedparser', 't:\\anaconda\\lib\\email\\feedparser.py', 'PYMODULE'),
  ('email.parser', 't:\\anaconda\\lib\\email\\parser.py', 'PYMODULE'),
  ('email', 't:\\anaconda\\lib\\email\\__init__.py', 'PYMODULE'),
  ('calendar', 't:\\anaconda\\lib\\calendar.py', 'PYMODULE'),
  ('email._parseaddr', 't:\\anaconda\\lib\\email\\_parseaddr.py', 'PYMODULE'),
  ('email.utils', 't:\\anaconda\\lib\\email\\utils.py', 'PYMODULE'),
  ('email.errors', 't:\\anaconda\\lib\\email\\errors.py', 'PYMODULE'),
  ('email.header', 't:\\anaconda\\lib\\email\\header.py', 'PYMODULE'),
  ('email._policybase', 't:\\anaconda\\lib\\email\\_policybase.py', 'PYMODULE'),
  ('email.base64mime', 't:\\anaconda\\lib\\email\\base64mime.py', 'PYMODULE'),
  ('email.encoders', 't:\\anaconda\\lib\\email\\encoders.py', 'PYMODULE'),
  ('email.charset', 't:\\anaconda\\lib\\email\\charset.py', 'PYMODULE'),
  ('base64', 't:\\anaconda\\lib\\base64.py', 'PYMODULE'),
  ('email._encoded_words',
   't:\\anaconda\\lib\\email\\_encoded_words.py',
   'PYMODULE'),
  ('hashlib', 't:\\anaconda\\lib\\hashlib.py', 'PYMODULE'),
  ('bisect', 't:\\anaconda\\lib\\bisect.py', 'PYMODULE'),
  ('random', 't:\\anaconda\\lib\\random.py', 'PYMODULE'),
  ('email.generator', 't:\\anaconda\\lib\\email\\generator.py', 'PYMODULE'),
  ('email.iterators', 't:\\anaconda\\lib\\email\\iterators.py', 'PYMODULE'),
  ('urllib', 't:\\anaconda\\lib\\urllib\\__init__.py', 'PYMODULE'),
  ('email._header_value_parser',
   't:\\anaconda\\lib\\email\\_header_value_parser.py',
   'PYMODULE'),
  ('email.headerregistry',
   't:\\anaconda\\lib\\email\\headerregistry.py',
   'PYMODULE'),
  ('email.quoprimime', 't:\\anaconda\\lib\\email\\quoprimime.py', 'PYMODULE'),
  ('email.contentmanager',
   't:\\anaconda\\lib\\email\\contentmanager.py',
   'PYMODULE'),
  ('email.policy', 't:\\anaconda\\lib\\email\\policy.py', 'PYMODULE'),
  ('email.message', 't:\\anaconda\\lib\\email\\message.py', 'PYMODULE'),
  ('gzip', 't:\\anaconda\\lib\\gzip.py', 'PYMODULE'),
  ('tarfile', 't:\\anaconda\\lib\\tarfile.py', 'PYMODULE'),
  ('bz2', 't:\\anaconda\\lib\\bz2.py', 'PYMODULE'),
  ('_compression', 't:\\anaconda\\lib\\_compression.py', 'PYMODULE'),
  ('lzma', 't:\\anaconda\\lib\\lzma.py', 'PYMODULE'),
  ('py_compile', 't:\\anaconda\\lib\\py_compile.py', 'PYMODULE'),
  ('zipfile', 't:\\anaconda\\lib\\zipfile.py', 'PYMODULE'),
  ('shutil', 't:\\anaconda\\lib\\shutil.py', 'PYMODULE'),
  ('socket', 't:\\anaconda\\lib\\socket.py', 'PYMODULE'),
  ('webbrowser', 't:\\anaconda\\lib\\webbrowser.py', 'PYMODULE'),
  ('pydoc', 't:\\anaconda\\lib\\pydoc.py', 'PYMODULE'),
  ('getopt', 't:\\anaconda\\lib\\getopt.py', 'PYMODULE'),
  ('pdb', 't:\\anaconda\\lib\\pdb.py', 'PYMODULE'),
  ('unittest.util', 't:\\anaconda\\lib\\unittest\\util.py', 'PYMODULE'),
  ('unittest.result', 't:\\anaconda\\lib\\unittest\\result.py', 'PYMODULE'),
  ('string', 't:\\anaconda\\lib\\string.py', 'PYMODULE'),
  ('logging', 't:\\anaconda\\lib\\logging\\__init__.py', 'PYMODULE'),
  ('unittest.case', 't:\\anaconda\\lib\\unittest\\case.py', 'PYMODULE'),
  ('unittest.suite', 't:\\anaconda\\lib\\unittest\\suite.py', 'PYMODULE'),
  ('unittest.loader', 't:\\anaconda\\lib\\unittest\\loader.py', 'PYMODULE'),
  ('unittest.runner', 't:\\anaconda\\lib\\unittest\\runner.py', 'PYMODULE'),
  ('unittest.main', 't:\\anaconda\\lib\\unittest\\main.py', 'PYMODULE'),
  ('unittest.signals', 't:\\anaconda\\lib\\unittest\\signals.py', 'PYMODULE'),
  ('doctest', 't:\\anaconda\\lib\\doctest.py', 'PYMODULE'),
  ('copy', 't:\\anaconda\\lib\\copy.py', 'PYMODULE'),
  ('stat', 't:\\anaconda\\lib\\stat.py', 'PYMODULE'),
  ('genericpath', 't:\\anaconda\\lib\\genericpath.py', 'PYMODULE'),
  ('posixpath', 't:\\anaconda\\lib\\posixpath.py', 'PYMODULE'),
  ('enum', 't:\\anaconda\\lib\\enum.py', 'PYMODULE'),
  ('signal', 't:\\anaconda\\lib\\signal.py', 'PYMODULE'),
  ('contextlib', 't:\\anaconda\\lib\\contextlib.py', 'PYMODULE'),
  ('_threading_local', 't:\\anaconda\\lib\\_threading_local.py', 'PYMODULE'),
  ('threading', 't:\\anaconda\\lib\\threading.py', 'PYMODULE'),
  ('selectors', 't:\\anaconda\\lib\\selectors.py', 'PYMODULE'),
  ('_dummy_thread', 't:\\anaconda\\lib\\_dummy_thread.py', 'PYMODULE'),
  ('dummy_threading', 't:\\anaconda\\lib\\dummy_threading.py', 'PYMODULE'),
  ('subprocess', 't:\\anaconda\\lib\\subprocess.py', 'PYMODULE'),
  ('os', 't:\\anaconda\\lib\\os.py', 'PYMODULE'),
  ('textwrap', 't:\\anaconda\\lib\\textwrap.py', 'PYMODULE'),
  ('gettext', 't:\\anaconda\\lib\\gettext.py', 'PYMODULE'),
  ('argparse', 't:\\anaconda\\lib\\argparse.py', 'PYMODULE'),
  ('pprint', 't:\\anaconda\\lib\\pprint.py', 'PYMODULE'),
  ('pickle', 't:\\anaconda\\lib\\pickle.py', 'PYMODULE'),
  ('tracemalloc', 't:\\anaconda\\lib\\tracemalloc.py', 'PYMODULE'),
  ('warnings', 't:\\anaconda\\lib\\warnings.py', 'PYMODULE'),
  ('DungeonMapData',
   'C:\\Users\\Stephenry\\Desktop\\dungeon-master-mentor\\GridStuff\\DungeonMapData.py',
   'PYMODULE'),
  ('cv2', 't:\\anaconda\\lib\\site-packages\\cv2\\__init__.py', 'PYMODULE'),
  ('numpy', 't:\\anaconda\\lib\\site-packages\\numpy\\__init__.py', 'PYMODULE'),
  ('numpy.matrixlib',
   't:\\anaconda\\lib\\site-packages\\numpy\\matrixlib\\__init__.py',
   'PYMODULE'),
  ('numpy.testing.nosetester',
   't:\\anaconda\\lib\\site-packages\\numpy\\testing\\nosetester.py',
   'PYMODULE'),
  ('numpy.testing.utils',
   't:\\anaconda\\lib\\site-packages\\numpy\\testing\\utils.py',
   'PYMODULE'),
  ('numpy.core.fromnumeric',
   't:\\anaconda\\lib\\site-packages\\numpy\\core\\fromnumeric.py',
   'PYMODULE'),
  ('numpy.core._methods',
   't:\\anaconda\\lib\\site-packages\\numpy\\core\\_methods.py',
   'PYMODULE'),
  ('numpy.core.numeric',
   't:\\anaconda\\lib\\site-packages\\numpy\\core\\numeric.py',
   'PYMODULE'),
  ('numpy.core.arrayprint',
   't:\\anaconda\\lib\\site-packages\\numpy\\core\\arrayprint.py',
   'PYMODULE'),
  ('numpy.core._internal',
   't:\\anaconda\\lib\\site-packages\\numpy\\core\\_internal.py',
   'PYMODULE'),
  ('numpy.core.numerictypes',
   't:\\anaconda\\lib\\site-packages\\numpy\\core\\numerictypes.py',
   'PYMODULE'),
  ('numpy.lib.utils',
   't:\\anaconda\\lib\\site-packages\\numpy\\lib\\utils.py',
   'PYMODULE'),
  ('nose.plugins.builtin',
   't:\\anaconda\\lib\\site-packages\\nose\\plugins\\builtin.py',
   'PYMODULE'),
  ('nose.plugins',
   't:\\anaconda\\lib\\site-packages\\nose\\plugins\\__init__.py',
   'PYMODULE'),
  ('nose.plugins.doctests',
   't:\\anaconda\\lib\\site-packages\\nose\\plugins\\doctests.py',
   'PYMODULE'),
  ('nose.ext.dtcompat',
   't:\\anaconda\\lib\\site-packages\\nose\\ext\\dtcompat.py',
   'PYMODULE'),
  ('nose.ext',
   't:\\anaconda\\lib\\site-packages\\nose\\ext\\__init__.py',
   'PYMODULE'),
  ('nose.util', 't:\\anaconda\\lib\\site-packages\\nose\\util.py', 'PYMODULE'),
  ('nose.tools',
   't:\\anaconda\\lib\\site-packages\\nose\\tools\\__init__.py',
   'PYMODULE'),
  ('nose.tools.trivial',
   't:\\anaconda\\lib\\site-packages\\nose\\tools\\trivial.py',
   'PYMODULE'),
  ('nose.tools.nontrivial',
   't:\\anaconda\\lib\\site-packages\\nose\\tools\\nontrivial.py',
   'PYMODULE'),
  ('nose.pyversion',
   't:\\anaconda\\lib\\site-packages\\nose\\pyversion.py',
   'PYMODULE'),
  ('nose.suite',
   't:\\anaconda\\lib\\site-packages\\nose\\suite.py',
   'PYMODULE'),
  ('nose.proxy',
   't:\\anaconda\\lib\\site-packages\\nose\\proxy.py',
   'PYMODULE'),
  ('nose.plugins.skip',
   't:\\anaconda\\lib\\site-packages\\nose\\plugins\\skip.py',
   'PYMODULE'),
  ('nose.plugins.errorclass',
   't:\\anaconda\\lib\\site-packages\\nose\\plugins\\errorclass.py',
   'PYMODULE'),
  ('nose.result',
   't:\\anaconda\\lib\\site-packages\\nose\\result.py',
   'PYMODULE'),
  ('nose.config',
   't:\\anaconda\\lib\\site-packages\\nose\\config.py',
   'PYMODULE'),
  ('nose.importer',
   't:\\anaconda\\lib\\site-packages\\nose\\importer.py',
   'PYMODULE'),
  ('logging.config', 't:\\anaconda\\lib\\logging\\config.py', 'PYMODULE'),
  ('json', 't:\\anaconda\\lib\\json\\__init__.py', 'PYMODULE'),
  ('json.encoder', 't:\\anaconda\\lib\\json\\encoder.py', 'PYMODULE'),
  ('json.decoder', 't:\\anaconda\\lib\\json\\decoder.py', 'PYMODULE'),
  ('json.scanner', 't:\\anaconda\\lib\\json\\scanner.py', 'PYMODULE'),
  ('logging.handlers', 't:\\anaconda\\lib\\logging\\handlers.py', 'PYMODULE'),
  ('win32evtlogutil',
   't:\\anaconda\\lib\\site-packages\\win32\\lib\\win32evtlogutil.py',
   'PYMODULE'),
  ('smtplib', 't:\\anaconda\\lib\\smtplib.py', 'PYMODULE'),
  ('configparser', 't:\\anaconda\\lib\\configparser.py', 'PYMODULE'),
  ('nose.case', 't:\\anaconda\\lib\\site-packages\\nose\\case.py', 'PYMODULE'),
  ('nose.failure',
   't:\\anaconda\\lib\\site-packages\\nose\\failure.py',
   'PYMODULE'),
  ('nose.plugins.plugintest',
   't:\\anaconda\\lib\\site-packages\\nose\\plugins\\plugintest.py',
   'PYMODULE'),
  ('nose.core', 't:\\anaconda\\lib\\site-packages\\nose\\core.py', 'PYMODULE'),
  ('nose.loader',
   't:\\anaconda\\lib\\site-packages\\nose\\loader.py',
   'PYMODULE'),
  ('nose.selector',
   't:\\anaconda\\lib\\site-packages\\nose\\selector.py',
   'PYMODULE'),
  ('nose.plugins.manager',
   't:\\anaconda\\lib\\site-packages\\nose\\plugins\\manager.py',
   'PYMODULE'),
  ('nose.exc', 't:\\anaconda\\lib\\site-packages\\nose\\exc.py', 'PYMODULE'),
  ('nose.plugins.deprecated',
   't:\\anaconda\\lib\\site-packages\\nose\\plugins\\deprecated.py',
   'PYMODULE'),
  ('nose.plugins.base',
   't:\\anaconda\\lib\\site-packages\\nose\\plugins\\base.py',
   'PYMODULE'),
  ('scipy', 't:\\anaconda\\lib\\site-packages\\scipy\\__init__.py', 'PYMODULE'),
  ('scipy._lib._version',
   't:\\anaconda\\lib\\site-packages\\scipy\\_lib\\_version.py',
   'PYMODULE'),
  ('scipy._lib',
   't:\\anaconda\\lib\\site-packages\\scipy\\_lib\\__init__.py',
   'PYMODULE'),
  ('scipy._lib.six',
   't:\\anaconda\\lib\\site-packages\\scipy\\_lib\\six.py',
   'PYMODULE'),
  ('scipy.version',
   't:\\anaconda\\lib\\site-packages\\scipy\\version.py',
   'PYMODULE'),
  ('scipy.__config__',
   't:\\anaconda\\lib\\site-packages\\scipy\\__config__.py',
   'PYMODULE'),
  ('numpy.lib.scimath',
   't:\\anaconda\\lib\\site-packages\\numpy\\lib\\scimath.py',
   'PYMODULE'),
  ('numpy.lib.type_check',
   't:\\anaconda\\lib\\site-packages\\numpy\\lib\\type_check.py',
   'PYMODULE'),
  ('numpy.core.getlimits',
   't:\\anaconda\\lib\\site-packages\\numpy\\core\\getlimits.py',
   'PYMODULE'),
  ('numpy.core.machar',
   't:\\anaconda\\lib\\site-packages\\numpy\\core\\machar.py',
   'PYMODULE'),
  ('numpy.lib.ufunclike',
   't:\\anaconda\\lib\\site-packages\\numpy\\lib\\ufunclike.py',
   'PYMODULE'),
  ('numpy.testing.noseclasses',
   't:\\anaconda\\lib\\site-packages\\numpy\\testing\\noseclasses.py',
   'PYMODULE'),
  ('nose', 't:\\anaconda\\lib\\site-packages\\nose\\__init__.py', 'PYMODULE'),
  ('numpy.matrixlib.defmatrix',
   't:\\anaconda\\lib\\site-packages\\numpy\\matrixlib\\defmatrix.py',
   'PYMODULE'),
  ('numpy.dual',
   't:\\anaconda\\lib\\site-packages\\numpy\\dual.py',
   'PYMODULE'),
  ('numpy.ma',
   't:\\anaconda\\lib\\site-packages\\numpy\\ma\\__init__.py',
   'PYMODULE'),
  ('numpy.ma.extras',
   't:\\anaconda\\lib\\site-packages\\numpy\\ma\\extras.py',
   'PYMODULE'),
  ('numpy.lib.index_tricks',
   't:\\anaconda\\lib\\site-packages\\numpy\\lib\\index_tricks.py',
   'PYMODULE'),
  ('numpy.lib.stride_tricks',
   't:\\anaconda\\lib\\site-packages\\numpy\\lib\\stride_tricks.py',
   'PYMODULE'),
  ('numpy.lib.function_base',
   't:\\anaconda\\lib\\site-packages\\numpy\\lib\\function_base.py',
   'PYMODULE'),
  ('numpy.compat.py3k',
   't:\\anaconda\\lib\\site-packages\\numpy\\compat\\py3k.py',
   'PYMODULE'),
  ('numpy.lib.twodim_base',
   't:\\anaconda\\lib\\site-packages\\numpy\\lib\\twodim_base.py',
   'PYMODULE'),
  ('numpy.ma.core',
   't:\\anaconda\\lib\\site-packages\\numpy\\ma\\core.py',
   'PYMODULE'),
  ('numpy.ctypeslib',
   't:\\anaconda\\lib\\site-packages\\numpy\\ctypeslib.py',
   'PYMODULE'),
  ('numpy.distutils.misc_util',
   't:\\anaconda\\lib\\site-packages\\numpy\\distutils\\misc_util.py',
   'PYMODULE'),
  ('distutils.msvccompiler',
   't:\\anaconda\\lib\\distutils\\msvccompiler.py',
   'PYMODULE'),
  ('distutils.msvc9compiler',
   't:\\anaconda\\lib\\distutils\\msvc9compiler.py',
   'PYMODULE'),
  ('numpy.distutils.npy_pkg_config',
   't:\\anaconda\\lib\\site-packages\\numpy\\distutils\\npy_pkg_config.py',
   'PYMODULE'),
  ('distutils.core', 't:\\anaconda\\lib\\distutils\\core.py', 'PYMODULE'),
  ('distutils.extension',
   't:\\anaconda\\lib\\distutils\\extension.py',
   'PYMODULE'),
  ('distutils.config', 't:\\anaconda\\lib\\distutils\\config.py', 'PYMODULE'),
  ('cgi', 't:\\anaconda\\lib\\cgi.py', 'PYMODULE'),
  ('distutils.cmd', 't:\\anaconda\\lib\\distutils\\cmd.py', 'PYMODULE'),
  ('distutils.dist', 't:\\anaconda\\lib\\distutils\\dist.py', 'PYMODULE'),
  ('distutils.versionpredicate',
   't:\\anaconda\\lib\\distutils\\versionpredicate.py',
   'PYMODULE'),
  ('distutils.command',
   't:\\anaconda\\lib\\distutils\\command\\__init__.py',
   'PYMODULE'),
  ('numpy.distutils.system_info',
   't:\\anaconda\\lib\\site-packages\\numpy\\distutils\\system_info.py',
   'PYMODULE'),
  ('numpy.f2py',
   't:\\anaconda\\lib\\site-packages\\numpy\\f2py\\__init__.py',
   'PYMODULE'),
  ('numpy.f2py.diagnose',
   't:\\anaconda\\lib\\site-packages\\numpy\\f2py\\diagnose.py',
   'PYMODULE'),
  ('numpy.distutils.fcompiler',
   't:\\anaconda\\lib\\site-packages\\numpy\\distutils\\fcompiler\\__init__.py',
   'PYMODULE'),
  ('numpy.distutils.command.config_compiler',
   't:\\anaconda\\lib\\site-packages\\numpy\\distutils\\command\\config_compiler.py',
   'PYMODULE'),
  ('numpy.distutils.command',
   't:\\anaconda\\lib\\site-packages\\numpy\\distutils\\command\\__init__.py',
   'PYMODULE'),
  ('numpy.distutils.command.egg_info',
   't:\\anaconda\\lib\\site-packages\\numpy\\distutils\\command\\egg_info.py',
   'PYMODULE'),
  ('setuptools.command.egg_info',
   't:\\anaconda\\lib\\site-packages\\setuptools\\command\\egg_info.py',
   'PYMODULE'),
  ('setuptools.glob',
   't:\\anaconda\\lib\\site-packages\\setuptools\\glob.py',
   'PYMODULE'),
  ('setuptools.unicode_utils',
   't:\\anaconda\\lib\\site-packages\\setuptools\\unicode_utils.py',
   'PYMODULE'),
  ('setuptools.command.bdist_egg',
   't:\\anaconda\\lib\\site-packages\\setuptools\\command\\bdist_egg.py',
   'PYMODULE'),
  ('setuptools.extension',
   't:\\anaconda\\lib\\site-packages\\setuptools\\extension.py',
   'PYMODULE'),
  ('setuptools.monkey',
   't:\\anaconda\\lib\\site-packages\\setuptools\\monkey.py',
   'PYMODULE'),
  ('setuptools.command',
   't:\\anaconda\\lib\\site-packages\\setuptools\\command\\__init__.py',
   'PYMODULE'),
  ('setuptools.command.install_scripts',
   't:\\anaconda\\lib\\site-packages\\setuptools\\command\\install_scripts.py',
   'PYMODULE'),
  ('setuptools.command.easy_install',
   't:\\anaconda\\lib\\site-packages\\setuptools\\command\\easy_install.py',
   'PYMODULE'),
  ('setuptools.dist',
   't:\\anaconda\\lib\\site-packages\\setuptools\\dist.py',
   'PYMODULE'),
  ('setuptools.py36compat',
   't:\\anaconda\\lib\\site-packages\\setuptools\\py36compat.py',
   'PYMODULE'),
  ('setuptools.config',
   't:\\anaconda\\lib\\site-packages\\setuptools\\config.py',
   'PYMODULE'),
  ('setuptools.windows_support',
   't:\\anaconda\\lib\\site-packages\\setuptools\\windows_support.py',
   'PYMODULE'),
  ('setuptools.depends',
   't:\\anaconda\\lib\\site-packages\\setuptools\\depends.py',
   'PYMODULE'),
  ('setuptools.py33compat',
   't:\\anaconda\\lib\\site-packages\\setuptools\\py33compat.py',
   'PYMODULE'),
  ('setuptools.wheel',
   't:\\anaconda\\lib\\site-packages\\setuptools\\wheel.py',
   'PYMODULE'),
  ('setuptools.pep425tags',
   't:\\anaconda\\lib\\site-packages\\setuptools\\pep425tags.py',
   'PYMODULE'),
  ('setuptools.glibc',
   't:\\anaconda\\lib\\site-packages\\setuptools\\glibc.py',
   'PYMODULE'),
  ('setuptools.package_index',
   't:\\anaconda\\lib\\site-packages\\setuptools\\package_index.py',
   'PYMODULE'),
  ('setuptools.ssl_support',
   't:\\anaconda\\lib\\site-packages\\setuptools\\ssl_support.py',
   'PYMODULE'),
  ('setuptools.archive_util',
   't:\\anaconda\\lib\\site-packages\\setuptools\\archive_util.py',
   'PYMODULE'),
  ('setuptools.py27compat',
   't:\\anaconda\\lib\\site-packages\\setuptools\\py27compat.py',
   'PYMODULE'),
  ('setuptools.py31compat',
   't:\\anaconda\\lib\\site-packages\\setuptools\\py31compat.py',
   'PYMODULE'),
  ('setuptools.sandbox',
   't:\\anaconda\\lib\\site-packages\\setuptools\\sandbox.py',
   'PYMODULE'),
  ('distutils.command.build_scripts',
   't:\\anaconda\\lib\\distutils\\command\\build_scripts.py',
   'PYMODULE'),
  ('distutils.command.install',
   't:\\anaconda\\lib\\distutils\\command\\install.py',
   'PYMODULE'),
  ('distutils.command.install_scripts',
   't:\\anaconda\\lib\\distutils\\command\\install_scripts.py',
   'PYMODULE'),
  ('distutils.command.bdist',
   't:\\anaconda\\lib\\distutils\\command\\bdist.py',
   'PYMODULE'),
  ('setuptools.command.setopt',
   't:\\anaconda\\lib\\site-packages\\setuptools\\command\\setopt.py',
   'PYMODULE'),
  ('setuptools.command.sdist',
   't:\\anaconda\\lib\\site-packages\\setuptools\\command\\sdist.py',
   'PYMODULE'),
  ('setuptools.command.py36compat',
   't:\\anaconda\\lib\\site-packages\\setuptools\\command\\py36compat.py',
   'PYMODULE'),
  ('distutils.command.sdist',
   't:\\anaconda\\lib\\distutils\\command\\sdist.py',
   'PYMODULE'),
  ('setuptools',
   't:\\anaconda\\lib\\site-packages\\setuptools\\__init__.py',
   'PYMODULE'),
  ('setuptools.msvc',
   't:\\anaconda\\lib\\site-packages\\setuptools\\msvc.py',
   'PYMODULE'),
  ('distutils.command.build_ext',
   't:\\anaconda\\lib\\distutils\\command\\build_ext.py',
   'PYMODULE'),
  ('distutils._msvccompiler',
   't:\\anaconda\\lib\\distutils\\_msvccompiler.py',
   'PYMODULE'),
  ('concurrent.futures',
   't:\\anaconda\\lib\\concurrent\\futures\\__init__.py',
   'PYMODULE'),
  ('concurrent.futures.thread',
   't:\\anaconda\\lib\\concurrent\\futures\\thread.py',
   'PYMODULE'),
  ('concurrent.futures.process',
   't:\\anaconda\\lib\\concurrent\\futures\\process.py',
   'PYMODULE'),
  ('concurrent.futures._base',
   't:\\anaconda\\lib\\concurrent\\futures\\_base.py',
   'PYMODULE'),
  ('concurrent', 't:\\anaconda\\lib\\concurrent\\__init__.py', 'PYMODULE'),
  ('setuptools.namespaces',
   't:\\anaconda\\lib\\site-packages\\setuptools\\namespaces.py',
   'PYMODULE'),
  ('setuptools.version',
   't:\\anaconda\\lib\\site-packages\\setuptools\\version.py',
   'PYMODULE'),
  ('setuptools.extern',
   't:\\anaconda\\lib\\site-packages\\setuptools\\extern\\__init__.py',
   'PYMODULE'),
  ('numpy.distutils.command.develop',
   't:\\anaconda\\lib\\site-packages\\numpy\\distutils\\command\\develop.py',
   'PYMODULE'),
  ('setuptools.command.develop',
   't:\\anaconda\\lib\\site-packages\\setuptools\\command\\develop.py',
   'PYMODULE'),
  ('numpy.distutils.command.install_clib',
   't:\\anaconda\\lib\\site-packages\\numpy\\distutils\\command\\install_clib.py',
   'PYMODULE'),
  ('numpy.distutils.command.bdist_rpm',
   't:\\anaconda\\lib\\site-packages\\numpy\\distutils\\command\\bdist_rpm.py',
   'PYMODULE'),
  ('distutils.command.bdist_rpm',
   't:\\anaconda\\lib\\distutils\\command\\bdist_rpm.py',
   'PYMODULE'),
  ('setuptools.command.bdist_rpm',
   't:\\anaconda\\lib\\site-packages\\setuptools\\command\\bdist_rpm.py',
   'PYMODULE'),
  ('numpy.distutils.command.install',
   't:\\anaconda\\lib\\site-packages\\numpy\\distutils\\command\\install.py',
   'PYMODULE'),
  ('setuptools.command.install',
   't:\\anaconda\\lib\\site-packages\\setuptools\\command\\install.py',
   'PYMODULE'),
  ('numpy.distutils.command.install_headers',
   't:\\anaconda\\lib\\site-packages\\numpy\\distutils\\command\\install_headers.py',
   'PYMODULE'),
  ('distutils.command.install_headers',
   't:\\anaconda\\lib\\distutils\\command\\install_headers.py',
   'PYMODULE'),
  ('numpy.distutils.command.install_data',
   't:\\anaconda\\lib\\site-packages\\numpy\\distutils\\command\\install_data.py',
   'PYMODULE'),
  ('distutils.command.install_data',
   't:\\anaconda\\lib\\distutils\\command\\install_data.py',
   'PYMODULE'),
  ('numpy.distutils.command.sdist',
   't:\\anaconda\\lib\\site-packages\\numpy\\distutils\\command\\sdist.py',
   'PYMODULE'),
  ('numpy.distutils.command.build_scripts',
   't:\\anaconda\\lib\\site-packages\\numpy\\distutils\\command\\build_scripts.py',
   'PYMODULE'),
  ('numpy.distutils.command.build_clib',
   't:\\anaconda\\lib\\site-packages\\numpy\\distutils\\command\\build_clib.py',
   'PYMODULE'),
  ('distutils.command.build_clib',
   't:\\anaconda\\lib\\distutils\\command\\build_clib.py',
   'PYMODULE'),
  ('numpy.distutils.command.build_ext',
   't:\\anaconda\\lib\\site-packages\\numpy\\distutils\\command\\build_ext.py',
   'PYMODULE'),
  ('numpy.distutils.command.build_py',
   't:\\anaconda\\lib\\site-packages\\numpy\\distutils\\command\\build_py.py',
   'PYMODULE'),
  ('distutils.command.build_py',
   't:\\anaconda\\lib\\distutils\\command\\build_py.py',
   'PYMODULE'),
  ('numpy.distutils.command.build',
   't:\\anaconda\\lib\\site-packages\\numpy\\distutils\\command\\build.py',
   'PYMODULE'),
  ('distutils.command.build',
   't:\\anaconda\\lib\\distutils\\command\\build.py',
   'PYMODULE'),
  ('numpy.distutils.environment',
   't:\\anaconda\\lib\\site-packages\\numpy\\distutils\\environment.py',
   'PYMODULE'),
  ('numpy.distutils.log',
   't:\\anaconda\\lib\\site-packages\\numpy\\distutils\\log.py',
   'PYMODULE'),
  ('numpy.distutils.ccompiler',
   't:\\anaconda\\lib\\site-packages\\numpy\\distutils\\ccompiler.py',
   'PYMODULE'),
  ('numpy.f2py.f2py_testing',
   't:\\anaconda\\lib\\site-packages\\numpy\\f2py\\f2py_testing.py',
   'PYMODULE'),
  ('numpy.f2py.f2py2e',
   't:\\anaconda\\lib\\site-packages\\numpy\\f2py\\f2py2e.py',
   'PYMODULE'),
  ('numpy.distutils.command.build_src',
   't:\\anaconda\\lib\\site-packages\\numpy\\distutils\\command\\build_src.py',
   'PYMODULE'),
  ('numpy.distutils.conv_template',
   't:\\anaconda\\lib\\site-packages\\numpy\\distutils\\conv_template.py',
   'PYMODULE'),
  ('numpy.distutils.from_template',
   't:\\anaconda\\lib\\site-packages\\numpy\\distutils\\from_template.py',
   'PYMODULE'),
  ('numpy.f2py.auxfuncs',
   't:\\anaconda\\lib\\site-packages\\numpy\\f2py\\auxfuncs.py',
   'PYMODULE'),
  ('numpy.f2py.f90mod_rules',
   't:\\anaconda\\lib\\site-packages\\numpy\\f2py\\f90mod_rules.py',
   'PYMODULE'),
  ('numpy.f2py.rules',
   't:\\anaconda\\lib\\site-packages\\numpy\\f2py\\rules.py',
   'PYMODULE'),
  ('numpy.f2py.use_rules',
   't:\\anaconda\\lib\\site-packages\\numpy\\f2py\\use_rules.py',
   'PYMODULE'),
  ('numpy.f2py.common_rules',
   't:\\anaconda\\lib\\site-packages\\numpy\\f2py\\common_rules.py',
   'PYMODULE'),
  ('numpy.f2py.func2subr',
   't:\\anaconda\\lib\\site-packages\\numpy\\f2py\\func2subr.py',
   'PYMODULE'),
  ('numpy.f2py.crackfortran',
   't:\\anaconda\\lib\\site-packages\\numpy\\f2py\\crackfortran.py',
   'PYMODULE'),
  ('fileinput', 't:\\anaconda\\lib\\fileinput.py', 'PYMODULE'),
  ('numpy.f2py.cb_rules',
   't:\\anaconda\\lib\\site-packages\\numpy\\f2py\\cb_rules.py',
   'PYMODULE'),
  ('numpy.f2py.capi_maps',
   't:\\anaconda\\lib\\site-packages\\numpy\\f2py\\capi_maps.py',
   'PYMODULE'),
  ('numpy.f2py.cfuncs',
   't:\\anaconda\\lib\\site-packages\\numpy\\f2py\\cfuncs.py',
   'PYMODULE'),
  ('numpy.f2py.__version__',
   't:\\anaconda\\lib\\site-packages\\numpy\\f2py\\__version__.py',
   'PYMODULE'),
  ('numpy.distutils.cpuinfo',
   't:\\anaconda\\lib\\site-packages\\numpy\\distutils\\cpuinfo.py',
   'PYMODULE'),
  ('numpy.distutils.command.config',
   't:\\anaconda\\lib\\site-packages\\numpy\\distutils\\command\\config.py',
   'PYMODULE'),
  ('numpy.distutils.command.autodist',
   't:\\anaconda\\lib\\site-packages\\numpy\\distutils\\command\\autodist.py',
   'PYMODULE'),
  ('numpy.distutils.mingw32ccompiler',
   't:\\anaconda\\lib\\site-packages\\numpy\\distutils\\mingw32ccompiler.py',
   'PYMODULE'),
  ('numpy.distutils.lib2def',
   't:\\anaconda\\lib\\site-packages\\numpy\\distutils\\lib2def.py',
   'PYMODULE'),
  ('distutils.unixccompiler',
   't:\\anaconda\\lib\\distutils\\unixccompiler.py',
   'PYMODULE'),
  ('distutils.cygwinccompiler',
   't:\\anaconda\\lib\\distutils\\cygwinccompiler.py',
   'PYMODULE'),
  ('distutils.command.config',
   't:\\anaconda\\lib\\distutils\\command\\config.py',
   'PYMODULE'),
  ('numpy.distutils.exec_command',
   't:\\anaconda\\lib\\site-packages\\numpy\\distutils\\exec_command.py',
   'PYMODULE'),
  ('curses', 't:\\anaconda\\lib\\curses\\__init__.py', 'PYMODULE'),
  ('curses.has_key', 't:\\anaconda\\lib\\curses\\has_key.py', 'PYMODULE'),
  ('numpy.distutils.core',
   't:\\anaconda\\lib\\site-packages\\numpy\\distutils\\core.py',
   'PYMODULE'),
  ('numpy.distutils.numpy_distribution',
   't:\\anaconda\\lib\\site-packages\\numpy\\distutils\\numpy_distribution.py',
   'PYMODULE'),
  ('numpy.distutils.extension',
   't:\\anaconda\\lib\\site-packages\\numpy\\distutils\\extension.py',
   'PYMODULE'),
  ('numpy.distutils',
   't:\\anaconda\\lib\\site-packages\\numpy\\distutils\\__init__.py',
   'PYMODULE'),
  ('numpy.distutils.__config__',
   't:\\anaconda\\lib\\site-packages\\numpy\\distutils\\__config__.py',
   'PYMODULE'),
  ('numpy.distutils.info',
   't:\\anaconda\\lib\\site-packages\\numpy\\distutils\\info.py',
   'PYMODULE'),
  ('numpy.distutils.unixccompiler',
   't:\\anaconda\\lib\\site-packages\\numpy\\distutils\\unixccompiler.py',
   'PYMODULE'),
  ('numpy.distutils.__version__',
   't:\\anaconda\\lib\\site-packages\\numpy\\distutils\\__version__.py',
   'PYMODULE'),
  ('numpy.distutils.compat',
   't:\\anaconda\\lib\\site-packages\\numpy\\distutils\\compat.py',
   'PYMODULE'),
  ('numpy.random',
   't:\\anaconda\\lib\\site-packages\\numpy\\random\\__init__.py',
   'PYMODULE'),
  ('numpy.random.info',
   't:\\anaconda\\lib\\site-packages\\numpy\\random\\info.py',
   'PYMODULE'),
  ('numpy.polynomial',
   't:\\anaconda\\lib\\site-packages\\numpy\\polynomial\\__init__.py',
   'PYMODULE'),
  ('numpy.polynomial.laguerre',
   't:\\anaconda\\lib\\site-packages\\numpy\\polynomial\\laguerre.py',
   'PYMODULE'),
  ('numpy.polynomial._polybase',
   't:\\anaconda\\lib\\site-packages\\numpy\\polynomial\\_polybase.py',
   'PYMODULE'),
  ('numpy.polynomial.hermite_e',
   't:\\anaconda\\lib\\site-packages\\numpy\\polynomial\\hermite_e.py',
   'PYMODULE'),
  ('numpy.polynomial.hermite',
   't:\\anaconda\\lib\\site-packages\\numpy\\polynomial\\hermite.py',
   'PYMODULE'),
  ('numpy.polynomial.legendre',
   't:\\anaconda\\lib\\site-packages\\numpy\\polynomial\\legendre.py',
   'PYMODULE'),
  ('numpy.polynomial.chebyshev',
   't:\\anaconda\\lib\\site-packages\\numpy\\polynomial\\chebyshev.py',
   'PYMODULE'),
  ('numpy.polynomial.polynomial',
   't:\\anaconda\\lib\\site-packages\\numpy\\polynomial\\polynomial.py',
   'PYMODULE'),
  ('numpy.polynomial.polyutils',
   't:\\anaconda\\lib\\site-packages\\numpy\\polynomial\\polyutils.py',
   'PYMODULE'),
  ('numpy.fft',
   't:\\anaconda\\lib\\site-packages\\numpy\\fft\\__init__.py',
   'PYMODULE'),
  ('numpy.fft.helper',
   't:\\anaconda\\lib\\site-packages\\numpy\\fft\\helper.py',
   'PYMODULE'),
  ('numpy.fft.fftpack',
   't:\\anaconda\\lib\\site-packages\\numpy\\fft\\fftpack.py',
   'PYMODULE'),
  ('numpy.fft.info',
   't:\\anaconda\\lib\\site-packages\\numpy\\fft\\info.py',
   'PYMODULE'),
  ('numpy.linalg',
   't:\\anaconda\\lib\\site-packages\\numpy\\linalg\\__init__.py',
   'PYMODULE'),
  ('numpy.linalg.linalg',
   't:\\anaconda\\lib\\site-packages\\numpy\\linalg\\linalg.py',
   'PYMODULE'),
  ('numpy.linalg.info',
   't:\\anaconda\\lib\\site-packages\\numpy\\linalg\\info.py',
   'PYMODULE'),
  ('numpy.lib',
   't:\\anaconda\\lib\\site-packages\\numpy\\lib\\__init__.py',
   'PYMODULE'),
  ('numpy.lib._version',
   't:\\anaconda\\lib\\site-packages\\numpy\\lib\\_version.py',
   'PYMODULE'),
  ('numpy.lib.arraypad',
   't:\\anaconda\\lib\\site-packages\\numpy\\lib\\arraypad.py',
   'PYMODULE'),
  ('numpy.lib.arrayterator',
   't:\\anaconda\\lib\\site-packages\\numpy\\lib\\arrayterator.py',
   'PYMODULE'),
  ('numpy.lib.financial',
   't:\\anaconda\\lib\\site-packages\\numpy\\lib\\financial.py',
   'PYMODULE'),
  ('numpy.lib.npyio',
   't:\\anaconda\\lib\\site-packages\\numpy\\lib\\npyio.py',
   'PYMODULE'),
  ('numpy.ma.mrecords',
   't:\\anaconda\\lib\\site-packages\\numpy\\ma\\mrecords.py',
   'PYMODULE'),
  ('numpy.core.records',
   't:\\anaconda\\lib\\site-packages\\numpy\\core\\records.py',
   'PYMODULE'),
  ('numpy.lib._iotools',
   't:\\anaconda\\lib\\site-packages\\numpy\\lib\\_iotools.py',
   'PYMODULE'),
  ('numpy.lib._datasource',
   't:\\anaconda\\lib\\site-packages\\numpy\\lib\\_datasource.py',
   'PYMODULE'),
  ('numpy.lib.format',
   't:\\anaconda\\lib\\site-packages\\numpy\\lib\\format.py',
   'PYMODULE'),
  ('numpy.lib.arraysetops',
   't:\\anaconda\\lib\\site-packages\\numpy\\lib\\arraysetops.py',
   'PYMODULE'),
  ('numpy.lib.polynomial',
   't:\\anaconda\\lib\\site-packages\\numpy\\lib\\polynomial.py',
   'PYMODULE'),
  ('numpy.lib.shape_base',
   't:\\anaconda\\lib\\site-packages\\numpy\\lib\\shape_base.py',
   'PYMODULE'),
  ('numpy.lib.nanfunctions',
   't:\\anaconda\\lib\\site-packages\\numpy\\lib\\nanfunctions.py',
   'PYMODULE'),
  ('numpy.lib.info',
   't:\\anaconda\\lib\\site-packages\\numpy\\lib\\info.py',
   'PYMODULE'),
  ('numpy.compat',
   't:\\anaconda\\lib\\site-packages\\numpy\\compat\\__init__.py',
   'PYMODULE'),
  ('numpy.compat._inspect',
   't:\\anaconda\\lib\\site-packages\\numpy\\compat\\_inspect.py',
   'PYMODULE'),
  ('numpy.core',
   't:\\anaconda\\lib\\site-packages\\numpy\\core\\__init__.py',
   'PYMODULE'),
  ('numpy.core.shape_base',
   't:\\anaconda\\lib\\site-packages\\numpy\\core\\shape_base.py',
   'PYMODULE'),
  ('numpy.core.function_base',
   't:\\anaconda\\lib\\site-packages\\numpy\\core\\function_base.py',
   'PYMODULE'),
  ('numpy.core.memmap',
   't:\\anaconda\\lib\\site-packages\\numpy\\core\\memmap.py',
   'PYMODULE'),
  ('numpy.core.defchararray',
   't:\\anaconda\\lib\\site-packages\\numpy\\core\\defchararray.py',
   'PYMODULE'),
  ('numpy.core.info',
   't:\\anaconda\\lib\\site-packages\\numpy\\core\\info.py',
   'PYMODULE'),
  ('numpy.testing',
   't:\\anaconda\\lib\\site-packages\\numpy\\testing\\__init__.py',
   'PYMODULE'),
  ('numpy.testing.decorators',
   't:\\anaconda\\lib\\site-packages\\numpy\\testing\\decorators.py',
   'PYMODULE'),
  ('numpy.add_newdocs',
   't:\\anaconda\\lib\\site-packages\\numpy\\add_newdocs.py',
   'PYMODULE'),
  ('numpy._import_tools',
   't:\\anaconda\\lib\\site-packages\\numpy\\_import_tools.py',
   'PYMODULE'),
  ('numpy.version',
   't:\\anaconda\\lib\\site-packages\\numpy\\version.py',
   'PYMODULE'),
  ('numpy.__config__',
   't:\\anaconda\\lib\\site-packages\\numpy\\__config__.py',
   'PYMODULE'),
  ('numpy._globals',
   't:\\anaconda\\lib\\site-packages\\numpy\\_globals.py',
   'PYMODULE'),
  ('unittest', 't:\\anaconda\\lib\\unittest\\__init__.py', 'PYMODULE')])
