('C:\\Users\\Stephenry\\Desktop\\dungeon-master-mentor\\GridStuff\\build\\gridStructureTest\\out00-PKG.pkg',
 {'BINARY': 1,
  'DATA': 1,
  'EXECUTABLE': 1,
  'EXTENSION': 1,
  'PYMODULE': 1,
  'PYSOURCE': 1,
  'PYZ': 0},
 [('out00-PYZ.pyz',
   'C:\\Users\\Stephenry\\Desktop\\dungeon-master-mentor\\GridStuff\\build\\gridStructureTest\\out00-PYZ.pyz',
   'PYZ'),
  ('struct', 't:\\anaconda\\lib\\struct.pyo', 'PYMODULE'),
  ('pyimod01_os_path',
   't:\\anaconda\\lib\\site-packages\\PyInstaller\\loader\\pyimod01_os_path.pyc',
   'PYMODULE'),
  ('pyimod02_archive',
   't:\\anaconda\\lib\\site-packages\\PyInstaller\\loader\\pyimod02_archive.pyc',
   'PYMODULE'),
  ('pyimod03_importers',
   't:\\anaconda\\lib\\site-packages\\PyInstaller\\loader\\pyimod03_importers.pyc',
   'PYMODULE'),
  ('pyiboot01_bootstrap',
   't:\\anaconda\\lib\\site-packages\\PyInstaller\\loader\\pyiboot01_bootstrap.py',
   'PYSOURCE'),
  ('pyi_rth_multiprocessing',
   't:\\anaconda\\lib\\site-packages\\PyInstaller\\loader\\rthooks\\pyi_rth_multiprocessing.py',
   'PYSOURCE'),
  ('pyi_rth_pkgres',
   't:\\anaconda\\lib\\site-packages\\PyInstaller\\loader\\rthooks\\pyi_rth_pkgres.py',
   'PYSOURCE'),
  ('pyi_rth_win32comgenpy',
   't:\\anaconda\\lib\\site-packages\\PyInstaller\\loader\\rthooks\\pyi_rth_win32comgenpy.py',
   'PYSOURCE'),
  ('pyi_rth_qt5',
   't:\\anaconda\\lib\\site-packages\\PyInstaller\\loader\\rthooks\\pyi_rth_qt5.py',
   'PYSOURCE'),
  ('gridStructureTest',
   'C:\\Users\\Stephenry\\Desktop\\dungeon-master-mentor\\GridStuff\\gridStructureTest.py',
   'PYSOURCE'),
  ('api-ms-win-crt-runtime-l1-1-0.dll',
   't:\\anaconda\\api-ms-win-crt-runtime-l1-1-0.dll',
   'BINARY'),
  ('VCRUNTIME140.dll', 't:\\anaconda\\VCRUNTIME140.dll', 'BINARY'),
  ('api-ms-win-crt-heap-l1-1-0.dll',
   't:\\anaconda\\api-ms-win-crt-heap-l1-1-0.dll',
   'BINARY'),
  ('api-ms-win-crt-locale-l1-1-0.dll',
   't:\\anaconda\\api-ms-win-crt-locale-l1-1-0.dll',
   'BINARY'),
  ('api-ms-win-crt-stdio-l1-1-0.dll',
   't:\\anaconda\\api-ms-win-crt-stdio-l1-1-0.dll',
   'BINARY'),
  ('python36.dll', 't:\\anaconda\\python36.dll', 'BINARY'),
  ('api-ms-win-crt-math-l1-1-0.dll',
   't:\\anaconda\\api-ms-win-crt-math-l1-1-0.dll',
   'BINARY'),
  ('ucrtbase.dll', 't:\\anaconda\\ucrtbase.dll', 'BINARY'),
  ('api-ms-win-crt-convert-l1-1-0.dll',
   't:\\anaconda\\api-ms-win-crt-convert-l1-1-0.dll',
   'BINARY'),
  ('api-ms-win-crt-string-l1-1-0.dll',
   't:\\anaconda\\api-ms-win-crt-string-l1-1-0.dll',
   'BINARY'),
  ('api-ms-win-crt-conio-l1-1-0.dll',
   't:\\anaconda\\api-ms-win-crt-conio-l1-1-0.dll',
   'BINARY'),
  ('api-ms-win-crt-environment-l1-1-0.dll',
   't:\\anaconda\\api-ms-win-crt-environment-l1-1-0.dll',
   'BINARY'),
  ('api-ms-win-crt-process-l1-1-0.dll',
   't:\\anaconda\\api-ms-win-crt-process-l1-1-0.dll',
   'BINARY'),
  ('api-ms-win-crt-time-l1-1-0.dll',
   't:\\anaconda\\api-ms-win-crt-time-l1-1-0.dll',
   'BINARY'),
  ('api-ms-win-crt-filesystem-l1-1-0.dll',
   't:\\anaconda\\api-ms-win-crt-filesystem-l1-1-0.dll',
   'BINARY'),
  ('api-ms-win-core-heap-l1-1-0.dll',
   't:\\anaconda\\api-ms-win-core-heap-l1-1-0.dll',
   'BINARY'),
  ('api-ms-win-core-synch-l1-1-0.dll',
   't:\\anaconda\\api-ms-win-core-synch-l1-1-0.dll',
   'BINARY'),
  ('api-ms-win-core-errorhandling-l1-1-0.dll',
   't:\\anaconda\\api-ms-win-core-errorhandling-l1-1-0.dll',
   'BINARY'),
  ('api-ms-win-core-file-l1-1-0.dll',
   't:\\anaconda\\api-ms-win-core-file-l1-1-0.dll',
   'BINARY'),
  ('api-ms-win-core-libraryloader-l1-1-0.dll',
   't:\\anaconda\\api-ms-win-core-libraryloader-l1-1-0.dll',
   'BINARY'),
  ('api-ms-win-core-sysinfo-l1-1-0.dll',
   't:\\anaconda\\api-ms-win-core-sysinfo-l1-1-0.dll',
   'BINARY'),
  ('api-ms-win-core-synch-l1-2-0.dll',
   't:\\anaconda\\api-ms-win-core-synch-l1-2-0.dll',
   'BINARY'),
  ('api-ms-win-core-namedpipe-l1-1-0.dll',
   't:\\anaconda\\api-ms-win-core-namedpipe-l1-1-0.dll',
   'BINARY'),
  ('api-ms-win-core-memory-l1-1-0.dll',
   't:\\anaconda\\api-ms-win-core-memory-l1-1-0.dll',
   'BINARY'),
  ('api-ms-win-core-debug-l1-1-0.dll',
   't:\\anaconda\\api-ms-win-core-debug-l1-1-0.dll',
   'BINARY'),
  ('api-ms-win-core-rtlsupport-l1-1-0.dll',
   't:\\anaconda\\api-ms-win-core-rtlsupport-l1-1-0.dll',
   'BINARY'),
  ('api-ms-win-core-util-l1-1-0.dll',
   't:\\anaconda\\api-ms-win-core-util-l1-1-0.dll',
   'BINARY'),
  ('api-ms-win-core-timezone-l1-1-0.dll',
   't:\\anaconda\\api-ms-win-core-timezone-l1-1-0.dll',
   'BINARY'),
  ('api-ms-win-core-datetime-l1-1-0.dll',
   't:\\anaconda\\api-ms-win-core-datetime-l1-1-0.dll',
   'BINARY'),
  ('api-ms-win-core-console-l1-1-0.dll',
   't:\\anaconda\\api-ms-win-core-console-l1-1-0.dll',
   'BINARY'),
  ('api-ms-win-core-processthreads-l1-1-1.dll',
   't:\\anaconda\\api-ms-win-core-processthreads-l1-1-1.dll',
   'BINARY'),
  ('api-ms-win-core-file-l1-2-0.dll',
   't:\\anaconda\\api-ms-win-core-file-l1-2-0.dll',
   'BINARY'),
  ('api-ms-win-core-interlocked-l1-1-0.dll',
   't:\\anaconda\\api-ms-win-core-interlocked-l1-1-0.dll',
   'BINARY'),
  ('api-ms-win-core-handle-l1-1-0.dll',
   't:\\anaconda\\api-ms-win-core-handle-l1-1-0.dll',
   'BINARY'),
  ('api-ms-win-core-profile-l1-1-0.dll',
   't:\\anaconda\\api-ms-win-core-profile-l1-1-0.dll',
   'BINARY'),
  ('api-ms-win-core-string-l1-1-0.dll',
   't:\\anaconda\\api-ms-win-core-string-l1-1-0.dll',
   'BINARY'),
  ('api-ms-win-core-file-l2-1-0.dll',
   't:\\anaconda\\api-ms-win-core-file-l2-1-0.dll',
   'BINARY'),
  ('api-ms-win-core-processenvironment-l1-1-0.dll',
   't:\\anaconda\\api-ms-win-core-processenvironment-l1-1-0.dll',
   'BINARY'),
  ('api-ms-win-core-localization-l1-2-0.dll',
   't:\\anaconda\\api-ms-win-core-localization-l1-2-0.dll',
   'BINARY'),
  ('api-ms-win-core-processthreads-l1-1-0.dll',
   't:\\anaconda\\api-ms-win-core-processthreads-l1-1-0.dll',
   'BINARY'),
  ('PyQt5\\Qt\\plugins\\imageformats\\qdds.dll',
   'T:\\Anaconda\\Library\\plugins\\imageformats\\qdds.dll',
   'BINARY'),
  ('PyQt5\\Qt\\plugins\\platforms\\qwindows.dll',
   'T:\\Anaconda\\Library\\plugins\\platforms\\qwindows.dll',
   'BINARY'),
  ('mkl_intel_thread.dll',
   't:\\anaconda\\Library\\bin\\mkl_intel_thread.dll',
   'BINARY'),
  ('pythoncom36.dll', 't:\\anaconda\\pythoncom36.dll', 'BINARY'),
  ('PyQt5\\Qt\\plugins\\printsupport\\windowsprintersupport.dll',
   'T:\\Anaconda\\Library\\plugins\\printsupport\\windowsprintersupport.dll',
   'BINARY'),
  ('PyQt5\\Qt\\plugins\\platforms\\qoffscreen.dll',
   'T:\\Anaconda\\Library\\plugins\\platforms\\qoffscreen.dll',
   'BINARY'),
  ('mkl_def.dll', 't:\\anaconda\\Library\\bin\\mkl_def.dll', 'BINARY'),
  ('mkl_vml_avx512.dll',
   't:\\anaconda\\Library\\bin\\mkl_vml_avx512.dll',
   'BINARY'),
  ('pywintypes36.dll', 't:\\anaconda\\pywintypes36.dll', 'BINARY'),
  ('PyQt5\\Qt\\plugins\\imageformats\\qjpeg.dll',
   'T:\\Anaconda\\Library\\plugins\\imageformats\\qjpeg.dll',
   'BINARY'),
  ('mkl_vml_cmpt.dll',
   't:\\anaconda\\Library\\bin\\mkl_vml_cmpt.dll',
   'BINARY'),
  ('mkl_vml_avx2.dll',
   't:\\anaconda\\Library\\bin\\mkl_vml_avx2.dll',
   'BINARY'),
  ('mkl_rt.dll', 't:\\anaconda\\Library\\bin\\mkl_rt.dll', 'BINARY'),
  ('mkl_avx2.dll', 't:\\anaconda\\Library\\bin\\mkl_avx2.dll', 'BINARY'),
  ('mkl_msg.dll', 't:\\anaconda\\Library\\bin\\mkl_msg.dll', 'BINARY'),
  ('mkl_sequential.dll',
   't:\\anaconda\\Library\\bin\\mkl_sequential.dll',
   'BINARY'),
  ('mkl_core.dll', 't:\\anaconda\\Library\\bin\\mkl_core.dll', 'BINARY'),
  ('PyQt5\\Qt\\plugins\\imageformats\\qsvg.dll',
   'T:\\Anaconda\\Library\\plugins\\imageformats\\qsvg.dll',
   'BINARY'),
  ('PyQt5\\Qt\\plugins\\imageformats\\qwebp.dll',
   'T:\\Anaconda\\Library\\plugins\\imageformats\\qwebp.dll',
   'BINARY'),
  ('PyQt5\\Qt\\plugins\\iconengines\\qsvgicon.dll',
   'T:\\Anaconda\\Library\\plugins\\iconengines\\qsvgicon.dll',
   'BINARY'),
  ('mkl_avx512.dll', 't:\\anaconda\\Library\\bin\\mkl_avx512.dll', 'BINARY'),
  ('PyQt5\\Qt\\plugins\\imageformats\\qicns.dll',
   'T:\\Anaconda\\Library\\plugins\\imageformats\\qicns.dll',
   'BINARY'),
  ('mkl_vml_avx512_mic.dll',
   't:\\anaconda\\Library\\bin\\mkl_vml_avx512_mic.dll',
   'BINARY'),
  ('PyQt5\\Qt\\plugins\\imageformats\\qgif.dll',
   'T:\\Anaconda\\Library\\plugins\\imageformats\\qgif.dll',
   'BINARY'),
  ('mkl_avx.dll', 't:\\anaconda\\Library\\bin\\mkl_avx.dll', 'BINARY'),
  ('mkl_vml_mc.dll', 't:\\anaconda\\Library\\bin\\mkl_vml_mc.dll', 'BINARY'),
  ('mkl_vml_mc2.dll', 't:\\anaconda\\Library\\bin\\mkl_vml_mc2.dll', 'BINARY'),
  ('mkl_tbb_thread.dll',
   't:\\anaconda\\Library\\bin\\mkl_tbb_thread.dll',
   'BINARY'),
  ('mkl_mc.dll', 't:\\anaconda\\Library\\bin\\mkl_mc.dll', 'BINARY'),
  ('PyQt5\\Qt\\plugins\\platforms\\qminimal.dll',
   'T:\\Anaconda\\Library\\plugins\\platforms\\qminimal.dll',
   'BINARY'),
  ('PyQt5\\Qt\\plugins\\imageformats\\qico.dll',
   'T:\\Anaconda\\Library\\plugins\\imageformats\\qico.dll',
   'BINARY'),
  ('mkl_mc3.dll', 't:\\anaconda\\Library\\bin\\mkl_mc3.dll', 'BINARY'),
  ('mkl_vml_def.dll', 't:\\anaconda\\Library\\bin\\mkl_vml_def.dll', 'BINARY'),
  ('PyQt5\\Qt\\plugins\\imageformats\\qtga.dll',
   'T:\\Anaconda\\Library\\plugins\\imageformats\\qtga.dll',
   'BINARY'),
  ('mkl_avx512_mic.dll',
   't:\\anaconda\\Library\\bin\\mkl_avx512_mic.dll',
   'BINARY'),
  ('mkl_vml_avx.dll', 't:\\anaconda\\Library\\bin\\mkl_vml_avx.dll', 'BINARY'),
  ('PyQt5\\Qt\\plugins\\imageformats\\qtiff.dll',
   'T:\\Anaconda\\Library\\plugins\\imageformats\\qtiff.dll',
   'BINARY'),
  ('mkl_vml_mc3.dll', 't:\\anaconda\\Library\\bin\\mkl_vml_mc3.dll', 'BINARY'),
  ('PyQt5\\Qt\\plugins\\imageformats\\qwbmp.dll',
   'T:\\Anaconda\\Library\\plugins\\imageformats\\qwbmp.dll',
   'BINARY'),
  ('win32trace',
   't:\\anaconda\\lib\\site-packages\\win32\\win32trace.pyd',
   'EXTENSION'),
  ('win32ui',
   't:\\anaconda\\lib\\site-packages\\Pythonwin\\win32ui.pyd',
   'EXTENSION'),
  ('_win32sysloader',
   't:\\anaconda\\lib\\site-packages\\win32\\_win32sysloader.pyd',
   'EXTENSION'),
  ('win32api',
   't:\\anaconda\\lib\\site-packages\\win32\\win32api.pyd',
   'EXTENSION'),
  ('_ctypes', 't:\\anaconda\\DLLs\\_ctypes.pyd', 'EXTENSION'),
  ('win32com.shell.shell',
   't:\\anaconda\\lib\\site-packages\\win32comext\\shell\\shell.pyd',
   'EXTENSION'),
  ('win32wnet',
   't:\\anaconda\\lib\\site-packages\\win32\\win32wnet.pyd',
   'EXTENSION'),
  ('PyQt5.Qt', 't:\\anaconda\\lib\\site-packages\\PyQt5\\Qt.pyd', 'EXTENSION'),
  ('PyQt5.QtPrintSupport',
   't:\\anaconda\\lib\\site-packages\\PyQt5\\QtPrintSupport.pyd',
   'EXTENSION'),
  ('PyQt5.QtWidgets',
   't:\\anaconda\\lib\\site-packages\\PyQt5\\QtWidgets.pyd',
   'EXTENSION'),
  ('PyQt5.QtGui',
   't:\\anaconda\\lib\\site-packages\\PyQt5\\QtGui.pyd',
   'EXTENSION'),
  ('PyQt5.QtCore',
   't:\\anaconda\\lib\\site-packages\\PyQt5\\QtCore.pyd',
   'EXTENSION'),
  ('sip', 't:\\anaconda\\lib\\site-packages\\sip.pyd', 'EXTENSION'),
  ('_multiprocessing', 't:\\anaconda\\DLLs\\_multiprocessing.pyd', 'EXTENSION'),
  ('_decimal', 't:\\anaconda\\DLLs\\_decimal.pyd', 'EXTENSION'),
  ('_ssl', 't:\\anaconda\\DLLs\\_ssl.pyd', 'EXTENSION'),
  ('unicodedata', 't:\\anaconda\\DLLs\\unicodedata.pyd', 'EXTENSION'),
  ('pyexpat', 't:\\anaconda\\DLLs\\pyexpat.pyd', 'EXTENSION'),
  ('_hashlib', 't:\\anaconda\\DLLs\\_hashlib.pyd', 'EXTENSION'),
  ('_bz2', 't:\\anaconda\\DLLs\\_bz2.pyd', 'EXTENSION'),
  ('_lzma', 't:\\anaconda\\DLLs\\_lzma.pyd', 'EXTENSION'),
  ('_socket', 't:\\anaconda\\DLLs\\_socket.pyd', 'EXTENSION'),
  ('select', 't:\\anaconda\\DLLs\\select.pyd', 'EXTENSION'),
  ('cv2.cv2',
   't:\\anaconda\\lib\\site-packages\\cv2\\cv2.cp36-win_amd64.pyd',
   'EXTENSION'),
  ('numpy.core.umath',
   't:\\anaconda\\lib\\site-packages\\numpy\\core\\umath.cp36-win_amd64.pyd',
   'EXTENSION'),
  ('numpy.core.multiarray',
   't:\\anaconda\\lib\\site-packages\\numpy\\core\\multiarray.cp36-win_amd64.pyd',
   'EXTENSION'),
  ('win32pdh',
   't:\\anaconda\\lib\\site-packages\\win32\\win32pdh.pyd',
   'EXTENSION'),
  ('win32evtlog',
   't:\\anaconda\\lib\\site-packages\\win32\\win32evtlog.pyd',
   'EXTENSION'),
  ('numpy.random.mtrand',
   't:\\anaconda\\lib\\site-packages\\numpy\\random\\mtrand.cp36-win_amd64.pyd',
   'EXTENSION'),
  ('numpy.fft.fftpack_lite',
   't:\\anaconda\\lib\\site-packages\\numpy\\fft\\fftpack_lite.cp36-win_amd64.pyd',
   'EXTENSION'),
  ('numpy.linalg._umath_linalg',
   't:\\anaconda\\lib\\site-packages\\numpy\\linalg\\_umath_linalg.cp36-win_amd64.pyd',
   'EXTENSION'),
  ('numpy.linalg.lapack_lite',
   't:\\anaconda\\lib\\site-packages\\numpy\\linalg\\lapack_lite.cp36-win_amd64.pyd',
   'EXTENSION'),
  ('Qt5Core.dll', 't:\\anaconda\\Library\\bin\\qt5core.dll', 'BINARY'),
  ('Qt5Gui.dll', 't:\\anaconda\\Library\\bin\\qt5gui.dll', 'BINARY'),
  ('api-ms-win-crt-utility-l1-1-0.dll',
   't:\\anaconda\\api-ms-win-crt-utility-l1-1-0.dll',
   'BINARY'),
  ('zlib.dll', 't:\\anaconda\\Library\\bin\\zlib.dll', 'BINARY'),
  ('libpng16.dll', 't:\\anaconda\\Library\\bin\\libpng16.dll', 'BINARY'),
  ('libiomp5md.dll', 't:\\anaconda\\Library\\bin\\libiomp5md.dll', 'BINARY'),
  ('Qt5PrintSupport.dll',
   't:\\anaconda\\Library\\bin\\qt5printsupport.dll',
   'BINARY'),
  ('libjpeg.dll', 't:\\anaconda\\Library\\bin\\libjpeg.dll', 'BINARY'),
  ('Qt5Svg.dll', 't:\\anaconda\\Library\\bin\\qt5svg.dll', 'BINARY'),
  ('mfc140u.dll',
   't:\\anaconda\\lib\\site-packages\\Pythonwin\\mfc140u.dll',
   'BINARY'),
  ('Qt5Widgets.dll', 't:\\anaconda\\Library\\bin\\qt5widgets.dll', 'BINARY'),
  ('python3.dll', 't:\\anaconda\\python3.dll', 'BINARY'),
  ('icuin57.dll', 't:\\anaconda\\Library\\bin\\icuin57.dll', 'BINARY'),
  ('MSVCP140.dll', 't:\\anaconda\\Library\\bin\\MSVCP140.dll', 'BINARY'),
  ('icuuc57.dll', 't:\\anaconda\\Library\\bin\\icuuc57.dll', 'BINARY'),
  ('api-ms-win-crt-multibyte-l1-1-0.dll',
   't:\\anaconda\\api-ms-win-crt-multibyte-l1-1-0.dll',
   'BINARY'),
  ('icudt57.dll', 't:\\anaconda\\Library\\bin\\icudt57.dll', 'BINARY'),
  ('base_library.zip',
   'C:\\Users\\Stephenry\\Desktop\\dungeon-master-mentor\\GridStuff\\build\\gridStructureTest\\base_library.zip',
   'DATA'),
  ('lib2to3\\Grammar.txt', 't:\\anaconda\\lib\\lib2to3\\Grammar.txt', 'DATA'),
  ('Include\\pyconfig.h', 't:\\anaconda\\Include\\pyconfig.h', 'DATA'),
  ('lib2to3\\Grammar3.6.0.final.0.pickle',
   't:\\anaconda\\lib\\lib2to3\\Grammar3.6.0.final.0.pickle',
   'DATA'),
  ('lib2to3\\PatternGrammar.txt',
   't:\\anaconda\\lib\\lib2to3\\PatternGrammar.txt',
   'DATA'),
  ('lib2to3\\PatternGrammar3.6.0.final.0.pickle',
   't:\\anaconda\\lib\\lib2to3\\PatternGrammar3.6.0.final.0.pickle',
   'DATA'),
  ('gridStructureTest.exe.manifest',
   'C:\\Users\\Stephenry\\Desktop\\dungeon-master-mentor\\GridStuff\\build\\gridStructureTest\\gridStructureTest.exe.manifest',
   'BINARY'),
  ('pyi-windows-manifest-filename gridStructureTest.exe.manifest',
   '',
   'OPTION')],
 False,
 False,
 False)
